%!PS-Adobe-2.0 EPSF-2.0
%%Title: wo_Polr.eps
%%Creator: gnuplot 5.0 patchlevel 3
%%CreationDate: Tue Jun 23 19:47:46 2020
%%DocumentFonts: (atend)
%%BoundingBox: 50 50 410 302
%%EndComments
%%BeginProlog
/gnudict 256 dict def
gnudict begin
%
% The following true/false flags may be edited by hand if desired.
% The unit line width and grayscale image gamma correction may also be changed.
%
/Color true def
/Blacktext false def
/Solid false def
/Dashlength 1 def
/Landscape false def
/Level1 false def
/Level3 false def
/Rounded false def
/ClipToBoundingBox false def
/SuppressPDFMark false def
/TransparentPatterns false def
/gnulinewidth 5.000 def
/userlinewidth gnulinewidth def
/Gamma 1.0 def
/BackgroundColor {-1.000 -1.000 -1.000} def
%
/vshift -86 def
/dl1 {
  10.0 Dashlength userlinewidth gnulinewidth div mul mul mul
  Rounded { currentlinewidth 0.75 mul sub dup 0 le { pop 0.01 } if } if
} def
/dl2 {
  10.0 Dashlength userlinewidth gnulinewidth div mul mul mul
  Rounded { currentlinewidth 0.75 mul add } if
} def
/hpt_ 31.5 def
/vpt_ 31.5 def
/hpt hpt_ def
/vpt vpt_ def
/doclip {
  ClipToBoundingBox {
    newpath 50 50 moveto 410 50 lineto 410 302 lineto 50 302 lineto closepath
    clip
  } if
} def
%
% Gnuplot Prolog Version 5.1 (Oct 2015)
%
%/SuppressPDFMark true def
%
/M {moveto} bind def
/L {lineto} bind def
/R {rmoveto} bind def
/V {rlineto} bind def
/N {newpath moveto} bind def
/Z {closepath} bind def
/C {setrgbcolor} bind def
/f {rlineto fill} bind def
/g {setgray} bind def
/Gshow {show} def   % May be redefined later in the file to support UTF-8
/vpt2 vpt 2 mul def
/hpt2 hpt 2 mul def
/Lshow {currentpoint stroke M 0 vshift R 
	Blacktext {gsave 0 setgray textshow grestore} {textshow} ifelse} def
/Rshow {currentpoint stroke M dup stringwidth pop neg vshift R
	Blacktext {gsave 0 setgray textshow grestore} {textshow} ifelse} def
/Cshow {currentpoint stroke M dup stringwidth pop -2 div vshift R 
	Blacktext {gsave 0 setgray textshow grestore} {textshow} ifelse} def
/UP {dup vpt_ mul /vpt exch def hpt_ mul /hpt exch def
  /hpt2 hpt 2 mul def /vpt2 vpt 2 mul def} def
/DL {Color {setrgbcolor Solid {pop []} if 0 setdash}
 {pop pop pop 0 setgray Solid {pop []} if 0 setdash} ifelse} def
/BL {stroke userlinewidth 2 mul setlinewidth
	Rounded {1 setlinejoin 1 setlinecap} if} def
/AL {stroke userlinewidth 2 div setlinewidth
	Rounded {1 setlinejoin 1 setlinecap} if} def
/UL {dup gnulinewidth mul /userlinewidth exch def
	dup 1 lt {pop 1} if 10 mul /udl exch def} def
/PL {stroke userlinewidth setlinewidth
	Rounded {1 setlinejoin 1 setlinecap} if} def
3.8 setmiterlimit
% Classic Line colors (version 5.0)
/LCw {1 1 1} def
/LCb {0 0 0} def
/LCa {0 0 0} def
/LC0 {1 0 0} def
/LC1 {0 1 0} def
/LC2 {0 0 1} def
/LC3 {1 0 1} def
/LC4 {0 1 1} def
/LC5 {1 1 0} def
/LC6 {0 0 0} def
/LC7 {1 0.3 0} def
/LC8 {0.5 0.5 0.5} def
% Default dash patterns (version 5.0)
/LTB {BL [] LCb DL} def
/LTw {PL [] 1 setgray} def
/LTb {PL [] LCb DL} def
/LTa {AL [1 udl mul 2 udl mul] 0 setdash LCa setrgbcolor} def
/LT0 {PL [] LC0 DL} def
/LT1 {PL [2 dl1 3 dl2] LC1 DL} def
/LT2 {PL [1 dl1 1.5 dl2] LC2 DL} def
/LT3 {PL [6 dl1 2 dl2 1 dl1 2 dl2] LC3 DL} def
/LT4 {PL [1 dl1 2 dl2 6 dl1 2 dl2 1 dl1 2 dl2] LC4 DL} def
/LT5 {PL [4 dl1 2 dl2] LC5 DL} def
/LT6 {PL [1.5 dl1 1.5 dl2 1.5 dl1 1.5 dl2 1.5 dl1 6 dl2] LC6 DL} def
/LT7 {PL [3 dl1 3 dl2 1 dl1 3 dl2] LC7 DL} def
/LT8 {PL [2 dl1 2 dl2 2 dl1 6 dl2] LC8 DL} def
/SL {[] 0 setdash} def
/Pnt {stroke [] 0 setdash gsave 1 setlinecap M 0 0 V stroke grestore} def
/Dia {stroke [] 0 setdash 2 copy vpt add M
  hpt neg vpt neg V hpt vpt neg V
  hpt vpt V hpt neg vpt V closepath stroke
  Pnt} def
/Pls {stroke [] 0 setdash vpt sub M 0 vpt2 V
  currentpoint stroke M
  hpt neg vpt neg R hpt2 0 V stroke
 } def
/Box {stroke [] 0 setdash 2 copy exch hpt sub exch vpt add M
  0 vpt2 neg V hpt2 0 V 0 vpt2 V
  hpt2 neg 0 V closepath stroke
  Pnt} def
/Crs {stroke [] 0 setdash exch hpt sub exch vpt add M
  hpt2 vpt2 neg V currentpoint stroke M
  hpt2 neg 0 R hpt2 vpt2 V stroke} def
/TriU {stroke [] 0 setdash 2 copy vpt 1.12 mul add M
  hpt neg vpt -1.62 mul V
  hpt 2 mul 0 V
  hpt neg vpt 1.62 mul V closepath stroke
  Pnt} def
/Star {2 copy Pls Crs} def
/BoxF {stroke [] 0 setdash exch hpt sub exch vpt add M
  0 vpt2 neg V hpt2 0 V 0 vpt2 V
  hpt2 neg 0 V closepath fill} def
/TriUF {stroke [] 0 setdash vpt 1.12 mul add M
  hpt neg vpt -1.62 mul V
  hpt 2 mul 0 V
  hpt neg vpt 1.62 mul V closepath fill} def
/TriD {stroke [] 0 setdash 2 copy vpt 1.12 mul sub M
  hpt neg vpt 1.62 mul V
  hpt 2 mul 0 V
  hpt neg vpt -1.62 mul V closepath stroke
  Pnt} def
/TriDF {stroke [] 0 setdash vpt 1.12 mul sub M
  hpt neg vpt 1.62 mul V
  hpt 2 mul 0 V
  hpt neg vpt -1.62 mul V closepath fill} def
/DiaF {stroke [] 0 setdash vpt add M
  hpt neg vpt neg V hpt vpt neg V
  hpt vpt V hpt neg vpt V closepath fill} def
/Pent {stroke [] 0 setdash 2 copy gsave
  translate 0 hpt M 4 {72 rotate 0 hpt L} repeat
  closepath stroke grestore Pnt} def
/PentF {stroke [] 0 setdash gsave
  translate 0 hpt M 4 {72 rotate 0 hpt L} repeat
  closepath fill grestore} def
/Circle {stroke [] 0 setdash 2 copy
  hpt 0 360 arc stroke Pnt} def
/CircleF {stroke [] 0 setdash hpt 0 360 arc fill} def
/C0 {BL [] 0 setdash 2 copy moveto vpt 90 450 arc} bind def
/C1 {BL [] 0 setdash 2 copy moveto
	2 copy vpt 0 90 arc closepath fill
	vpt 0 360 arc closepath} bind def
/C2 {BL [] 0 setdash 2 copy moveto
	2 copy vpt 90 180 arc closepath fill
	vpt 0 360 arc closepath} bind def
/C3 {BL [] 0 setdash 2 copy moveto
	2 copy vpt 0 180 arc closepath fill
	vpt 0 360 arc closepath} bind def
/C4 {BL [] 0 setdash 2 copy moveto
	2 copy vpt 180 270 arc closepath fill
	vpt 0 360 arc closepath} bind def
/C5 {BL [] 0 setdash 2 copy moveto
	2 copy vpt 0 90 arc
	2 copy moveto
	2 copy vpt 180 270 arc closepath fill
	vpt 0 360 arc} bind def
/C6 {BL [] 0 setdash 2 copy moveto
	2 copy vpt 90 270 arc closepath fill
	vpt 0 360 arc closepath} bind def
/C7 {BL [] 0 setdash 2 copy moveto
	2 copy vpt 0 270 arc closepath fill
	vpt 0 360 arc closepath} bind def
/C8 {BL [] 0 setdash 2 copy moveto
	2 copy vpt 270 360 arc closepath fill
	vpt 0 360 arc closepath} bind def
/C9 {BL [] 0 setdash 2 copy moveto
	2 copy vpt 270 450 arc closepath fill
	vpt 0 360 arc closepath} bind def
/C10 {BL [] 0 setdash 2 copy 2 copy moveto vpt 270 360 arc closepath fill
	2 copy moveto
	2 copy vpt 90 180 arc closepath fill
	vpt 0 360 arc closepath} bind def
/C11 {BL [] 0 setdash 2 copy moveto
	2 copy vpt 0 180 arc closepath fill
	2 copy moveto
	2 copy vpt 270 360 arc closepath fill
	vpt 0 360 arc closepath} bind def
/C12 {BL [] 0 setdash 2 copy moveto
	2 copy vpt 180 360 arc closepath fill
	vpt 0 360 arc closepath} bind def
/C13 {BL [] 0 setdash 2 copy moveto
	2 copy vpt 0 90 arc closepath fill
	2 copy moveto
	2 copy vpt 180 360 arc closepath fill
	vpt 0 360 arc closepath} bind def
/C14 {BL [] 0 setdash 2 copy moveto
	2 copy vpt 90 360 arc closepath fill
	vpt 0 360 arc} bind def
/C15 {BL [] 0 setdash 2 copy vpt 0 360 arc closepath fill
	vpt 0 360 arc closepath} bind def
/Rec {newpath 4 2 roll moveto 1 index 0 rlineto 0 exch rlineto
	neg 0 rlineto closepath} bind def
/Square {dup Rec} bind def
/Bsquare {vpt sub exch vpt sub exch vpt2 Square} bind def
/S0 {BL [] 0 setdash 2 copy moveto 0 vpt rlineto BL Bsquare} bind def
/S1 {BL [] 0 setdash 2 copy vpt Square fill Bsquare} bind def
/S2 {BL [] 0 setdash 2 copy exch vpt sub exch vpt Square fill Bsquare} bind def
/S3 {BL [] 0 setdash 2 copy exch vpt sub exch vpt2 vpt Rec fill Bsquare} bind def
/S4 {BL [] 0 setdash 2 copy exch vpt sub exch vpt sub vpt Square fill Bsquare} bind def
/S5 {BL [] 0 setdash 2 copy 2 copy vpt Square fill
	exch vpt sub exch vpt sub vpt Square fill Bsquare} bind def
/S6 {BL [] 0 setdash 2 copy exch vpt sub exch vpt sub vpt vpt2 Rec fill Bsquare} bind def
/S7 {BL [] 0 setdash 2 copy exch vpt sub exch vpt sub vpt vpt2 Rec fill
	2 copy vpt Square fill Bsquare} bind def
/S8 {BL [] 0 setdash 2 copy vpt sub vpt Square fill Bsquare} bind def
/S9 {BL [] 0 setdash 2 copy vpt sub vpt vpt2 Rec fill Bsquare} bind def
/S10 {BL [] 0 setdash 2 copy vpt sub vpt Square fill 2 copy exch vpt sub exch vpt Square fill
	Bsquare} bind def
/S11 {BL [] 0 setdash 2 copy vpt sub vpt Square fill 2 copy exch vpt sub exch vpt2 vpt Rec fill
	Bsquare} bind def
/S12 {BL [] 0 setdash 2 copy exch vpt sub exch vpt sub vpt2 vpt Rec fill Bsquare} bind def
/S13 {BL [] 0 setdash 2 copy exch vpt sub exch vpt sub vpt2 vpt Rec fill
	2 copy vpt Square fill Bsquare} bind def
/S14 {BL [] 0 setdash 2 copy exch vpt sub exch vpt sub vpt2 vpt Rec fill
	2 copy exch vpt sub exch vpt Square fill Bsquare} bind def
/S15 {BL [] 0 setdash 2 copy Bsquare fill Bsquare} bind def
/D0 {gsave translate 45 rotate 0 0 S0 stroke grestore} bind def
/D1 {gsave translate 45 rotate 0 0 S1 stroke grestore} bind def
/D2 {gsave translate 45 rotate 0 0 S2 stroke grestore} bind def
/D3 {gsave translate 45 rotate 0 0 S3 stroke grestore} bind def
/D4 {gsave translate 45 rotate 0 0 S4 stroke grestore} bind def
/D5 {gsave translate 45 rotate 0 0 S5 stroke grestore} bind def
/D6 {gsave translate 45 rotate 0 0 S6 stroke grestore} bind def
/D7 {gsave translate 45 rotate 0 0 S7 stroke grestore} bind def
/D8 {gsave translate 45 rotate 0 0 S8 stroke grestore} bind def
/D9 {gsave translate 45 rotate 0 0 S9 stroke grestore} bind def
/D10 {gsave translate 45 rotate 0 0 S10 stroke grestore} bind def
/D11 {gsave translate 45 rotate 0 0 S11 stroke grestore} bind def
/D12 {gsave translate 45 rotate 0 0 S12 stroke grestore} bind def
/D13 {gsave translate 45 rotate 0 0 S13 stroke grestore} bind def
/D14 {gsave translate 45 rotate 0 0 S14 stroke grestore} bind def
/D15 {gsave translate 45 rotate 0 0 S15 stroke grestore} bind def
/DiaE {stroke [] 0 setdash vpt add M
  hpt neg vpt neg V hpt vpt neg V
  hpt vpt V hpt neg vpt V closepath stroke} def
/BoxE {stroke [] 0 setdash exch hpt sub exch vpt add M
  0 vpt2 neg V hpt2 0 V 0 vpt2 V
  hpt2 neg 0 V closepath stroke} def
/TriUE {stroke [] 0 setdash vpt 1.12 mul add M
  hpt neg vpt -1.62 mul V
  hpt 2 mul 0 V
  hpt neg vpt 1.62 mul V closepath stroke} def
/TriDE {stroke [] 0 setdash vpt 1.12 mul sub M
  hpt neg vpt 1.62 mul V
  hpt 2 mul 0 V
  hpt neg vpt -1.62 mul V closepath stroke} def
/PentE {stroke [] 0 setdash gsave
  translate 0 hpt M 4 {72 rotate 0 hpt L} repeat
  closepath stroke grestore} def
/CircE {stroke [] 0 setdash 
  hpt 0 360 arc stroke} def
/Opaque {gsave closepath 1 setgray fill grestore 0 setgray closepath} def
/DiaW {stroke [] 0 setdash vpt add M
  hpt neg vpt neg V hpt vpt neg V
  hpt vpt V hpt neg vpt V Opaque stroke} def
/BoxW {stroke [] 0 setdash exch hpt sub exch vpt add M
  0 vpt2 neg V hpt2 0 V 0 vpt2 V
  hpt2 neg 0 V Opaque stroke} def
/TriUW {stroke [] 0 setdash vpt 1.12 mul add M
  hpt neg vpt -1.62 mul V
  hpt 2 mul 0 V
  hpt neg vpt 1.62 mul V Opaque stroke} def
/TriDW {stroke [] 0 setdash vpt 1.12 mul sub M
  hpt neg vpt 1.62 mul V
  hpt 2 mul 0 V
  hpt neg vpt -1.62 mul V Opaque stroke} def
/PentW {stroke [] 0 setdash gsave
  translate 0 hpt M 4 {72 rotate 0 hpt L} repeat
  Opaque stroke grestore} def
/CircW {stroke [] 0 setdash 
  hpt 0 360 arc Opaque stroke} def
/BoxFill {gsave Rec 1 setgray fill grestore} def
/Density {
  /Fillden exch def
  currentrgbcolor
  /ColB exch def /ColG exch def /ColR exch def
  /ColR ColR Fillden mul Fillden sub 1 add def
  /ColG ColG Fillden mul Fillden sub 1 add def
  /ColB ColB Fillden mul Fillden sub 1 add def
  ColR ColG ColB setrgbcolor} def
/BoxColFill {gsave Rec PolyFill} def
/PolyFill {gsave Density fill grestore grestore} def
/h {rlineto rlineto rlineto gsave closepath fill grestore} bind def
%
% PostScript Level 1 Pattern Fill routine for rectangles
% Usage: x y w h s a XX PatternFill
%	x,y = lower left corner of box to be filled
%	w,h = width and height of box
%	  a = angle in degrees between lines and x-axis
%	 XX = 0/1 for no/yes cross-hatch
%
/PatternFill {gsave /PFa [ 9 2 roll ] def
  PFa 0 get PFa 2 get 2 div add PFa 1 get PFa 3 get 2 div add translate
  PFa 2 get -2 div PFa 3 get -2 div PFa 2 get PFa 3 get Rec
  TransparentPatterns {} {gsave 1 setgray fill grestore} ifelse
  clip
  currentlinewidth 0.5 mul setlinewidth
  /PFs PFa 2 get dup mul PFa 3 get dup mul add sqrt def
  0 0 M PFa 5 get rotate PFs -2 div dup translate
  0 1 PFs PFa 4 get div 1 add floor cvi
	{PFa 4 get mul 0 M 0 PFs V} for
  0 PFa 6 get ne {
	0 1 PFs PFa 4 get div 1 add floor cvi
	{PFa 4 get mul 0 2 1 roll M PFs 0 V} for
 } if
  stroke grestore} def
%
/languagelevel where
 {pop languagelevel} {1} ifelse
dup 2 lt
	{/InterpretLevel1 true def
	 /InterpretLevel3 false def}
	{/InterpretLevel1 Level1 def
	 2 gt
	    {/InterpretLevel3 Level3 def}
	    {/InterpretLevel3 false def}
	 ifelse }
 ifelse
%
% PostScript level 2 pattern fill definitions
%
/Level2PatternFill {
/Tile8x8 {/PaintType 2 /PatternType 1 /TilingType 1 /BBox [0 0 8 8] /XStep 8 /YStep 8}
	bind def
/KeepColor {currentrgbcolor [/Pattern /DeviceRGB] setcolorspace} bind def
<< Tile8x8
 /PaintProc {0.5 setlinewidth pop 0 0 M 8 8 L 0 8 M 8 0 L stroke} 
>> matrix makepattern
/Pat1 exch def
<< Tile8x8
 /PaintProc {0.5 setlinewidth pop 0 0 M 8 8 L 0 8 M 8 0 L stroke
	0 4 M 4 8 L 8 4 L 4 0 L 0 4 L stroke}
>> matrix makepattern
/Pat2 exch def
<< Tile8x8
 /PaintProc {0.5 setlinewidth pop 0 0 M 0 8 L
	8 8 L 8 0 L 0 0 L fill}
>> matrix makepattern
/Pat3 exch def
<< Tile8x8
 /PaintProc {0.5 setlinewidth pop -4 8 M 8 -4 L
	0 12 M 12 0 L stroke}
>> matrix makepattern
/Pat4 exch def
<< Tile8x8
 /PaintProc {0.5 setlinewidth pop -4 0 M 8 12 L
	0 -4 M 12 8 L stroke}
>> matrix makepattern
/Pat5 exch def
<< Tile8x8
 /PaintProc {0.5 setlinewidth pop -2 8 M 4 -4 L
	0 12 M 8 -4 L 4 12 M 10 0 L stroke}
>> matrix makepattern
/Pat6 exch def
<< Tile8x8
 /PaintProc {0.5 setlinewidth pop -2 0 M 4 12 L
	0 -4 M 8 12 L 4 -4 M 10 8 L stroke}
>> matrix makepattern
/Pat7 exch def
<< Tile8x8
 /PaintProc {0.5 setlinewidth pop 8 -2 M -4 4 L
	12 0 M -4 8 L 12 4 M 0 10 L stroke}
>> matrix makepattern
/Pat8 exch def
<< Tile8x8
 /PaintProc {0.5 setlinewidth pop 0 -2 M 12 4 L
	-4 0 M 12 8 L -4 4 M 8 10 L stroke}
>> matrix makepattern
/Pat9 exch def
/Pattern1 {PatternBgnd KeepColor Pat1 setpattern} bind def
/Pattern2 {PatternBgnd KeepColor Pat2 setpattern} bind def
/Pattern3 {PatternBgnd KeepColor Pat3 setpattern} bind def
/Pattern4 {PatternBgnd KeepColor Landscape {Pat5} {Pat4} ifelse setpattern} bind def
/Pattern5 {PatternBgnd KeepColor Landscape {Pat4} {Pat5} ifelse setpattern} bind def
/Pattern6 {PatternBgnd KeepColor Landscape {Pat9} {Pat6} ifelse setpattern} bind def
/Pattern7 {PatternBgnd KeepColor Landscape {Pat8} {Pat7} ifelse setpattern} bind def
} def
%
%
%End of PostScript Level 2 code
%
/PatternBgnd {
  TransparentPatterns {} {gsave 1 setgray fill grestore} ifelse
} def
%
% Substitute for Level 2 pattern fill codes with
% grayscale if Level 2 support is not selected.
%
/Level1PatternFill {
/Pattern1 {0.250 Density} bind def
/Pattern2 {0.500 Density} bind def
/Pattern3 {0.750 Density} bind def
/Pattern4 {0.125 Density} bind def
/Pattern5 {0.375 Density} bind def
/Pattern6 {0.625 Density} bind def
/Pattern7 {0.875 Density} bind def
} def
%
% Now test for support of Level 2 code
%
Level1 {Level1PatternFill} {Level2PatternFill} ifelse
%
/Symbol-Oblique /Symbol findfont [1 0 .167 1 0 0] makefont
dup length dict begin {1 index /FID eq {pop pop} {def} ifelse} forall
currentdict end definefont pop
%
/MFshow {
   { dup 5 get 3 ge
     { 5 get 3 eq {gsave} {grestore} ifelse }
     {dup dup 0 get findfont exch 1 get scalefont setfont
     [ currentpoint ] exch dup 2 get 0 exch R dup 5 get 2 ne {dup dup 6
     get exch 4 get {textshow} {stringwidth pop 0 R} ifelse }if dup 5 get 0 eq
     {dup 3 get {2 get neg 0 exch R pop} {pop aload pop M} ifelse} {dup 5
     get 1 eq {dup 2 get exch dup 3 get exch 6 get stringwidth pop -2 div
     dup 0 R} {dup 6 get stringwidth pop -2 div 0 R 6 get
     textshow 2 index {aload pop M neg 3 -1 roll neg R pop pop} {pop pop pop
     pop aload pop M} ifelse }ifelse }ifelse }
     ifelse }
   forall} def
/Gswidth {dup type /stringtype eq {stringwidth} {pop (n) stringwidth} ifelse} def
/MFwidth {0 exch { dup 5 get 3 ge { 5 get 3 eq { 0 } { pop } ifelse }
 {dup 3 get{dup dup 0 get findfont exch 1 get scalefont setfont
     6 get Gswidth pop add} {pop} ifelse} ifelse} forall} def
/MLshow { currentpoint stroke M
  0 exch R
  Blacktext {gsave 0 setgray MFshow grestore} {MFshow} ifelse } bind def
/MRshow { currentpoint stroke M
  exch dup MFwidth neg 3 -1 roll R
  Blacktext {gsave 0 setgray MFshow grestore} {MFshow} ifelse } bind def
/MCshow { currentpoint stroke M
  exch dup MFwidth -2 div 3 -1 roll R
  Blacktext {gsave 0 setgray MFshow grestore} {MFshow} ifelse } bind def
/XYsave    { [( ) 1 2 true false 3 ()] } bind def
/XYrestore { [( ) 1 2 true false 4 ()] } bind def
Level1 SuppressPDFMark or 
{} {
/SDict 10 dict def
systemdict /pdfmark known not {
  userdict /pdfmark systemdict /cleartomark get put
} if
SDict begin [
  /Title (wo_Polr.eps)
  /Subject (gnuplot plot)
  /Creator (gnuplot 5.0 patchlevel 3)
  /Author (debarshee)
%  /Producer (gnuplot)
%  /Keywords ()
  /CreationDate (Tue Jun 23 19:47:46 2020)
  /DOCINFO pdfmark
end
} ifelse
%
% Support for boxed text - Ethan A Merritt May 2005
%
/InitTextBox { userdict /TBy2 3 -1 roll put userdict /TBx2 3 -1 roll put
           userdict /TBy1 3 -1 roll put userdict /TBx1 3 -1 roll put
	   /Boxing true def } def
/ExtendTextBox { Boxing
    { gsave dup false charpath pathbbox
      dup TBy2 gt {userdict /TBy2 3 -1 roll put} {pop} ifelse
      dup TBx2 gt {userdict /TBx2 3 -1 roll put} {pop} ifelse
      dup TBy1 lt {userdict /TBy1 3 -1 roll put} {pop} ifelse
      dup TBx1 lt {userdict /TBx1 3 -1 roll put} {pop} ifelse
      grestore } if } def
/PopTextBox { newpath TBx1 TBxmargin sub TBy1 TBymargin sub M
               TBx1 TBxmargin sub TBy2 TBymargin add L
	       TBx2 TBxmargin add TBy2 TBymargin add L
	       TBx2 TBxmargin add TBy1 TBymargin sub L closepath } def
/DrawTextBox { PopTextBox stroke /Boxing false def} def
/FillTextBox { gsave PopTextBox 1 1 1 setrgbcolor fill grestore /Boxing false def} def
0 0 0 0 InitTextBox
/TBxmargin 20 def
/TBymargin 20 def
/Boxing false def
/textshow { ExtendTextBox Gshow } def
%
% redundant definitions for compatibility with prologue.ps older than 5.0.2
/LTB {BL [] LCb DL} def
/LTb {PL [] LCb DL} def
end
%%EndProlog
%%Page: 1 1
gnudict begin
gsave
doclip
50 50 translate
0.050 0.050 scale
0 setgray
newpath
(Helvetica) findfont 260 scalefont setfont
BackgroundColor 0 lt 3 1 roll 0 lt exch 0 lt or or not {BackgroundColor C 1.000 0 0 7200.00 5040.00 BoxColFill} if
1.000 UL
LTb
LCb setrgbcolor
1430 832 M
63 0 V
5238 0 R
-63 0 V
stroke
1274 832 M
[ [(Helvetica) 260.0 0.0 true true 0 ( 0)]
] -86.7 MRshow
1.000 UL
LTb
LCb setrgbcolor
1430 1517 M
63 0 V
5238 0 R
-63 0 V
stroke
1274 1517 M
[ [(Helvetica) 260.0 0.0 true true 0 ( 0.02)]
] -86.7 MRshow
1.000 UL
LTb
LCb setrgbcolor
1430 2203 M
63 0 V
5238 0 R
-63 0 V
stroke
1274 2203 M
[ [(Helvetica) 260.0 0.0 true true 0 ( 0.04)]
] -86.7 MRshow
1.000 UL
LTb
LCb setrgbcolor
1430 2888 M
63 0 V
5238 0 R
-63 0 V
stroke
1274 2888 M
[ [(Helvetica) 260.0 0.0 true true 0 ( 0.06)]
] -86.7 MRshow
1.000 UL
LTb
LCb setrgbcolor
1430 3574 M
63 0 V
5238 0 R
-63 0 V
stroke
1274 3574 M
[ [(Helvetica) 260.0 0.0 true true 0 ( 0.08)]
] -86.7 MRshow
1.000 UL
LTb
LCb setrgbcolor
1430 4259 M
63 0 V
5238 0 R
-63 0 V
stroke
1274 4259 M
[ [(Helvetica) 260.0 0.0 true true 0 ( 0.1)]
] -86.7 MRshow
1.000 UL
LTb
LCb setrgbcolor
1430 832 M
0 63 V
0 3364 R
0 -63 V
stroke
1430 572 M
[ [(Helvetica) 260.0 0.0 true true 0 ( 0)]
] -86.7 MCshow
1.000 UL
LTb
LCb setrgbcolor
2093 832 M
0 63 V
0 3364 R
0 -63 V
stroke
2093 572 M
[ [(Helvetica) 260.0 0.0 true true 0 ( 0.1)]
] -86.7 MCshow
1.000 UL
LTb
LCb setrgbcolor
2755 832 M
0 63 V
0 3364 R
0 -63 V
stroke
2755 572 M
[ [(Helvetica) 260.0 0.0 true true 0 ( 0.2)]
] -86.7 MCshow
1.000 UL
LTb
LCb setrgbcolor
3418 832 M
0 63 V
0 3364 R
0 -63 V
stroke
3418 572 M
[ [(Helvetica) 260.0 0.0 true true 0 ( 0.3)]
] -86.7 MCshow
1.000 UL
LTb
LCb setrgbcolor
4081 832 M
0 63 V
0 3364 R
0 -63 V
stroke
4081 572 M
[ [(Helvetica) 260.0 0.0 true true 0 ( 0.4)]
] -86.7 MCshow
1.000 UL
LTb
LCb setrgbcolor
4743 832 M
0 63 V
0 3364 R
0 -63 V
stroke
4743 572 M
[ [(Helvetica) 260.0 0.0 true true 0 ( 0.5)]
] -86.7 MCshow
1.000 UL
LTb
LCb setrgbcolor
5406 832 M
0 63 V
0 3364 R
0 -63 V
stroke
5406 572 M
[ [(Helvetica) 260.0 0.0 true true 0 ( 0.6)]
] -86.7 MCshow
1.000 UL
LTb
LCb setrgbcolor
6068 832 M
0 63 V
0 3364 R
0 -63 V
stroke
6068 572 M
[ [(Helvetica) 260.0 0.0 true true 0 ( 0.7)]
] -86.7 MCshow
1.000 UL
LTb
LCb setrgbcolor
6731 832 M
0 63 V
0 3364 R
0 -63 V
stroke
6731 572 M
[ [(Helvetica) 260.0 0.0 true true 0 ( 0.8)]
] -86.7 MCshow
1.000 UL
LTb
LCb setrgbcolor
1.000 UL
LTB
LCb setrgbcolor
1430 4259 N
0 -3427 V
5301 0 V
0 3427 V
-5301 0 V
Z stroke
1.000 UP
LCb setrgbcolor
2093 3574 M
[ [(Helvetica) 260.0 0.0 true true 0 (\(a\))]
] -86.7 MLshow
1.000 UL
LTb
LCb setrgbcolor
LCb setrgbcolor
208 2545 M
currentpoint gsave translate -270 rotate 0 0 moveto
[ [(Helvetica) 260.0 0.0 true true 0 (Histogram\()]
[(Symbol) 260.0 0.0 true true 0 (r)]
[(Helvetica) 260.0 0.0 true true 0 (\))]
] -86.7 MCshow
grestore
LTb
LCb setrgbcolor
4080 182 M
[ [(Symbol) 260.0 0.0 true true 0 (r)]
] -86.7 MCshow
LTb
LCb setrgbcolor
4080 4649 M
[ [(Helvetica) 260.0 0.0 true true 0 (wo/Polr)]
] -86.7 MCshow
% Begin plot #1
1.000 UP
1.000 UL
LTb
0.58 0.00 0.83 C LCb setrgbcolor
6122 4059 M
[ [(Symbol) 260.0 0.0 true true 0 (S)]
[(Helvetica) 260.0 0.0 true true 0 ( = 0.10 C/m)]
[(Helvetica) 208.0 130.0 true true 0 (2)]
] -112.7 MRshow
1.000 UP
1.000 UL
LTb
0.58 0.00 0.83 C 6278 4059 M
141 0 V
1820 841 M
62 31 V
62 -14 V
63 13 V
62 54 V
62 39 V
62 29 V
63 40 V
62 33 V
62 6 V
62 84 V
63 171 V
62 30 V
62 153 V
62 258 V
62 62 V
63 122 V
62 54 V
62 183 V
62 125 V
63 176 V
62 103 V
62 45 V
62 -115 V
63 -66 V
62 166 V
62 -203 V
62 -9 V
63 -85 V
62 -53 V
62 -176 V
62 -195 V
63 -109 V
62 -112 V
62 -150 V
62 -133 V
63 -141 V
62 19 V
62 -136 V
62 -92 V
63 -39 V
62 -43 V
62 7 V
62 -6 V
63 -50 V
62 -32 V
62 -28 V
62 -11 V
62 -9 V
63 -2 V
1820 841 Pls
1882 872 Pls
1944 858 Pls
2007 871 Pls
2069 925 Pls
2131 964 Pls
2193 993 Pls
2256 1033 Pls
2318 1066 Pls
2380 1072 Pls
2442 1156 Pls
2505 1327 Pls
2567 1357 Pls
2629 1510 Pls
2691 1768 Pls
2753 1830 Pls
2816 1952 Pls
2878 2006 Pls
2940 2189 Pls
3002 2314 Pls
3065 2490 Pls
3127 2593 Pls
3189 2638 Pls
3251 2523 Pls
3314 2457 Pls
3376 2623 Pls
3438 2420 Pls
3500 2411 Pls
3563 2326 Pls
3625 2273 Pls
3687 2097 Pls
3749 1902 Pls
3812 1793 Pls
3874 1681 Pls
3936 1531 Pls
3998 1398 Pls
4061 1257 Pls
4123 1276 Pls
4185 1140 Pls
4247 1048 Pls
4310 1009 Pls
4372 966 Pls
4434 973 Pls
4496 967 Pls
4559 917 Pls
4621 885 Pls
4683 857 Pls
4745 846 Pls
4807 837 Pls
4870 835 Pls
6348 4059 Pls
% End plot #1
% Begin plot #2
1.000 UP
1.000 UL
LTb
0.00 0.62 0.45 C LCb setrgbcolor
6122 3786 M
[ [(Helvetica) 260.0 0.0 true true 0 ( = 0.12 C/m)]
[(Helvetica) 208.0 130.0 true true 0 (2)]
] -112.7 MRshow
1.000 UP
1.000 UL
LTb
0.00 0.62 0.45 C 6278 3786 M
141 0 V
1800 842 M
71 16 V
71 -19 V
72 0 V
71 -3 V
71 6 V
72 -2 V
71 14 V
71 9 V
72 8 V
71 29 V
71 66 V
72 15 V
71 80 V
71 205 V
72 37 V
71 220 V
71 141 V
72 208 V
71 153 V
71 313 V
72 312 V
71 30 V
71 18 V
72 -76 V
71 169 V
71 82 V
72 246 V
71 -155 V
71 -183 V
72 -249 V
71 -261 V
71 -140 V
72 -112 V
71 -232 V
71 -191 V
72 -209 V
71 -159 V
71 -107 V
72 -23 V
71 15 V
71 -73 V
72 -83 V
71 -45 V
71 -28 V
72 -15 V
71 -20 V
71 -4 V
72 -11 V
71 0 V
1800 842 Crs
1871 858 Crs
1942 839 Crs
2014 839 Crs
2085 836 Crs
2156 842 Crs
2228 840 Crs
2299 854 Crs
2370 863 Crs
2442 871 Crs
2513 900 Crs
2584 966 Crs
2656 981 Crs
2727 1061 Crs
2798 1266 Crs
2870 1303 Crs
2941 1523 Crs
3012 1664 Crs
3084 1872 Crs
3155 2025 Crs
3226 2338 Crs
3298 2650 Crs
3369 2680 Crs
3440 2698 Crs
3512 2622 Crs
3583 2791 Crs
3654 2873 Crs
3726 3119 Crs
3797 2964 Crs
3868 2781 Crs
3940 2532 Crs
4011 2271 Crs
4082 2131 Crs
4154 2019 Crs
4225 1787 Crs
4296 1596 Crs
4368 1387 Crs
4439 1228 Crs
4510 1121 Crs
4582 1098 Crs
4653 1113 Crs
4724 1040 Crs
4796 957 Crs
4867 912 Crs
4938 884 Crs
5010 869 Crs
5081 849 Crs
5152 845 Crs
5224 834 Crs
5295 834 Crs
6348 3786 Crs
% End plot #2
% Begin plot #3
1.000 UP
1.000 UL
LTb
0.34 0.71 0.91 C LCb setrgbcolor
6122 3513 M
[ [(Helvetica) 260.0 0.0 true true 0 ( = 0.14 C/m)]
[(Helvetica) 208.0 130.0 true true 0 (2)]
] -112.7 MRshow
1.000 UP
1.000 UL
LTb
0.34 0.71 0.91 C 6278 3513 M
141 0 V
2288 841 M
71 0 V
72 0 V
71 2 V
71 -9 V
71 14 V
71 20 V
71 44 V
72 45 V
71 42 V
71 23 V
71 100 V
71 104 V
71 39 V
72 158 V
71 341 V
71 49 V
71 103 V
71 113 V
71 198 V
72 94 V
71 322 V
71 188 V
71 272 V
71 -38 V
71 -174 V
72 -118 V
71 -125 V
71 -104 V
71 -266 V
71 -75 V
71 -135 V
72 -260 V
71 -120 V
71 -161 V
71 -161 V
71 -135 V
71 -117 V
72 -8 V
71 -37 V
71 13 V
71 -100 V
71 -46 V
71 -47 V
72 -12 V
71 -18 V
71 4 V
71 -21 V
71 -5 V
71 0 V
2288 841 Star
2359 841 Star
2431 841 Star
2502 843 Star
2573 834 Star
2644 848 Star
2715 868 Star
2786 912 Star
2858 957 Star
2929 999 Star
3000 1022 Star
3071 1122 Star
3142 1226 Star
3213 1265 Star
3285 1423 Star
3356 1764 Star
3427 1813 Star
3498 1916 Star
3569 2029 Star
3640 2227 Star
3712 2321 Star
3783 2643 Star
3854 2831 Star
3925 3103 Star
3996 3065 Star
4067 2891 Star
4139 2773 Star
4210 2648 Star
4281 2544 Star
4352 2278 Star
4423 2203 Star
4494 2068 Star
4566 1808 Star
4637 1688 Star
4708 1527 Star
4779 1366 Star
4850 1231 Star
4921 1114 Star
4993 1106 Star
5064 1069 Star
5135 1082 Star
5206 982 Star
5277 936 Star
5348 889 Star
5420 877 Star
5491 859 Star
5562 863 Star
5633 842 Star
5704 837 Star
5775 837 Star
6348 3513 Star
% End plot #3
% Begin plot #4
1.000 UP
1.000 UL
LTb
0.90 0.62 0.00 C LCb setrgbcolor
6122 3240 M
[ [(Helvetica) 260.0 0.0 true true 0 ( = 0.16 C/m)]
[(Helvetica) 208.0 130.0 true true 0 (2)]
] -112.7 MRshow
1.000 UP
1.000 UL
LTb
0.90 0.62 0.00 C 6278 3240 M
141 0 V
2970 846 M
65 29 V
66 12 V
66 46 V
65 -25 V
66 40 V
65 64 V
66 27 V
66 27 V
65 76 V
66 116 V
65 91 V
66 259 V
66 206 V
65 65 V
66 247 V
65 199 V
66 148 V
66 123 V
65 118 V
66 191 V
65 119 V
66 -248 V
66 -81 V
65 -85 V
66 -249 V
65 -23 V
66 -51 V
66 -113 V
65 -145 V
66 -235 V
65 -267 V
66 -175 V
65 -12 V
66 -98 V
66 -70 V
65 -85 V
66 -49 V
65 -121 V
66 -31 V
66 -8 V
65 -5 V
66 -30 V
65 6 V
66 -6 V
66 7 V
65 6 V
66 -13 V
65 -1 V
66 -2 V
2970 846 Box
3035 875 Box
3101 887 Box
3167 933 Box
3232 908 Box
3298 948 Box
3363 1012 Box
3429 1039 Box
3495 1066 Box
3560 1142 Box
3626 1258 Box
3691 1349 Box
3757 1608 Box
3823 1814 Box
3888 1879 Box
3954 2126 Box
4019 2325 Box
4085 2473 Box
4151 2596 Box
4216 2714 Box
4282 2905 Box
4347 3024 Box
4413 2776 Box
4479 2695 Box
4544 2610 Box
4610 2361 Box
4675 2338 Box
4741 2287 Box
4807 2174 Box
4872 2029 Box
4938 1794 Box
5003 1527 Box
5069 1352 Box
5134 1340 Box
5200 1242 Box
5266 1172 Box
5331 1087 Box
5397 1038 Box
5462 917 Box
5528 886 Box
5594 878 Box
5659 873 Box
5725 843 Box
5790 849 Box
5856 843 Box
5922 850 Box
5987 856 Box
6053 843 Box
6118 842 Box
6184 840 Box
6348 3240 Box
% End plot #4
2.000 UL
LTb
LCb setrgbcolor
1.000 UL
LTB
LCb setrgbcolor
1430 4259 N
0 -3427 V
5301 0 V
0 3427 V
-5301 0 V
Z stroke
1.000 UP
1.000 UL
LTb
LCb setrgbcolor
stroke
grestore
end
showpage
%%Trailer
%%DocumentFonts: Symbol Helvetica
