%!PS-Adobe-2.0 EPSF-2.0
%%Title: Zvarn_Rgz_mul.eps
%%Creator: gnuplot 5.0 patchlevel 3
%%CreationDate: Fri Apr 17 15:34:19 2020
%%DocumentFonts: (atend)
%%BoundingBox: 50 50 410 302
%%EndComments
%%BeginProlog
/gnudict 256 dict def
gnudict begin
%
% The following true/false flags may be edited by hand if desired.
% The unit line width and grayscale image gamma correction may also be changed.
%
/Color true def
/Blacktext false def
/Solid false def
/Dashlength 1 def
/Landscape false def
/Level1 false def
/Level3 false def
/Rounded false def
/ClipToBoundingBox false def
/SuppressPDFMark false def
/TransparentPatterns false def
/gnulinewidth 5.000 def
/userlinewidth gnulinewidth def
/Gamma 1.0 def
/BackgroundColor {-1.000 -1.000 -1.000} def
%
/vshift -100 def
/dl1 {
  10.0 Dashlength userlinewidth gnulinewidth div mul mul mul
  Rounded { currentlinewidth 0.75 mul sub dup 0 le { pop 0.01 } if } if
} def
/dl2 {
  10.0 Dashlength userlinewidth gnulinewidth div mul mul mul
  Rounded { currentlinewidth 0.75 mul add } if
} def
/hpt_ 31.5 def
/vpt_ 31.5 def
/hpt hpt_ def
/vpt vpt_ def
/doclip {
  ClipToBoundingBox {
    newpath 50 50 moveto 410 50 lineto 410 302 lineto 50 302 lineto closepath
    clip
  } if
} def
%
% Gnuplot Prolog Version 5.1 (Oct 2015)
%
%/SuppressPDFMark true def
%
/M {moveto} bind def
/L {lineto} bind def
/R {rmoveto} bind def
/V {rlineto} bind def
/N {newpath moveto} bind def
/Z {closepath} bind def
/C {setrgbcolor} bind def
/f {rlineto fill} bind def
/g {setgray} bind def
/Gshow {show} def   % May be redefined later in the file to support UTF-8
/vpt2 vpt 2 mul def
/hpt2 hpt 2 mul def
/Lshow {currentpoint stroke M 0 vshift R 
	Blacktext {gsave 0 setgray textshow grestore} {textshow} ifelse} def
/Rshow {currentpoint stroke M dup stringwidth pop neg vshift R
	Blacktext {gsave 0 setgray textshow grestore} {textshow} ifelse} def
/Cshow {currentpoint stroke M dup stringwidth pop -2 div vshift R 
	Blacktext {gsave 0 setgray textshow grestore} {textshow} ifelse} def
/UP {dup vpt_ mul /vpt exch def hpt_ mul /hpt exch def
  /hpt2 hpt 2 mul def /vpt2 vpt 2 mul def} def
/DL {Color {setrgbcolor Solid {pop []} if 0 setdash}
 {pop pop pop 0 setgray Solid {pop []} if 0 setdash} ifelse} def
/BL {stroke userlinewidth 2 mul setlinewidth
	Rounded {1 setlinejoin 1 setlinecap} if} def
/AL {stroke userlinewidth 2 div setlinewidth
	Rounded {1 setlinejoin 1 setlinecap} if} def
/UL {dup gnulinewidth mul /userlinewidth exch def
	dup 1 lt {pop 1} if 10 mul /udl exch def} def
/PL {stroke userlinewidth setlinewidth
	Rounded {1 setlinejoin 1 setlinecap} if} def
3.8 setmiterlimit
% Classic Line colors (version 5.0)
/LCw {1 1 1} def
/LCb {0 0 0} def
/LCa {0 0 0} def
/LC0 {1 0 0} def
/LC1 {0 1 0} def
/LC2 {0 0 1} def
/LC3 {1 0 1} def
/LC4 {0 1 1} def
/LC5 {1 1 0} def
/LC6 {0 0 0} def
/LC7 {1 0.3 0} def
/LC8 {0.5 0.5 0.5} def
% Default dash patterns (version 5.0)
/LTB {BL [] LCb DL} def
/LTw {PL [] 1 setgray} def
/LTb {PL [] LCb DL} def
/LTa {AL [1 udl mul 2 udl mul] 0 setdash LCa setrgbcolor} def
/LT0 {PL [] LC0 DL} def
/LT1 {PL [2 dl1 3 dl2] LC1 DL} def
/LT2 {PL [1 dl1 1.5 dl2] LC2 DL} def
/LT3 {PL [6 dl1 2 dl2 1 dl1 2 dl2] LC3 DL} def
/LT4 {PL [1 dl1 2 dl2 6 dl1 2 dl2 1 dl1 2 dl2] LC4 DL} def
/LT5 {PL [4 dl1 2 dl2] LC5 DL} def
/LT6 {PL [1.5 dl1 1.5 dl2 1.5 dl1 1.5 dl2 1.5 dl1 6 dl2] LC6 DL} def
/LT7 {PL [3 dl1 3 dl2 1 dl1 3 dl2] LC7 DL} def
/LT8 {PL [2 dl1 2 dl2 2 dl1 6 dl2] LC8 DL} def
/SL {[] 0 setdash} def
/Pnt {stroke [] 0 setdash gsave 1 setlinecap M 0 0 V stroke grestore} def
/Dia {stroke [] 0 setdash 2 copy vpt add M
  hpt neg vpt neg V hpt vpt neg V
  hpt vpt V hpt neg vpt V closepath stroke
  Pnt} def
/Pls {stroke [] 0 setdash vpt sub M 0 vpt2 V
  currentpoint stroke M
  hpt neg vpt neg R hpt2 0 V stroke
 } def
/Box {stroke [] 0 setdash 2 copy exch hpt sub exch vpt add M
  0 vpt2 neg V hpt2 0 V 0 vpt2 V
  hpt2 neg 0 V closepath stroke
  Pnt} def
/Crs {stroke [] 0 setdash exch hpt sub exch vpt add M
  hpt2 vpt2 neg V currentpoint stroke M
  hpt2 neg 0 R hpt2 vpt2 V stroke} def
/TriU {stroke [] 0 setdash 2 copy vpt 1.12 mul add M
  hpt neg vpt -1.62 mul V
  hpt 2 mul 0 V
  hpt neg vpt 1.62 mul V closepath stroke
  Pnt} def
/Star {2 copy Pls Crs} def
/BoxF {stroke [] 0 setdash exch hpt sub exch vpt add M
  0 vpt2 neg V hpt2 0 V 0 vpt2 V
  hpt2 neg 0 V closepath fill} def
/TriUF {stroke [] 0 setdash vpt 1.12 mul add M
  hpt neg vpt -1.62 mul V
  hpt 2 mul 0 V
  hpt neg vpt 1.62 mul V closepath fill} def
/TriD {stroke [] 0 setdash 2 copy vpt 1.12 mul sub M
  hpt neg vpt 1.62 mul V
  hpt 2 mul 0 V
  hpt neg vpt -1.62 mul V closepath stroke
  Pnt} def
/TriDF {stroke [] 0 setdash vpt 1.12 mul sub M
  hpt neg vpt 1.62 mul V
  hpt 2 mul 0 V
  hpt neg vpt -1.62 mul V closepath fill} def
/DiaF {stroke [] 0 setdash vpt add M
  hpt neg vpt neg V hpt vpt neg V
  hpt vpt V hpt neg vpt V closepath fill} def
/Pent {stroke [] 0 setdash 2 copy gsave
  translate 0 hpt M 4 {72 rotate 0 hpt L} repeat
  closepath stroke grestore Pnt} def
/PentF {stroke [] 0 setdash gsave
  translate 0 hpt M 4 {72 rotate 0 hpt L} repeat
  closepath fill grestore} def
/Circle {stroke [] 0 setdash 2 copy
  hpt 0 360 arc stroke Pnt} def
/CircleF {stroke [] 0 setdash hpt 0 360 arc fill} def
/C0 {BL [] 0 setdash 2 copy moveto vpt 90 450 arc} bind def
/C1 {BL [] 0 setdash 2 copy moveto
	2 copy vpt 0 90 arc closepath fill
	vpt 0 360 arc closepath} bind def
/C2 {BL [] 0 setdash 2 copy moveto
	2 copy vpt 90 180 arc closepath fill
	vpt 0 360 arc closepath} bind def
/C3 {BL [] 0 setdash 2 copy moveto
	2 copy vpt 0 180 arc closepath fill
	vpt 0 360 arc closepath} bind def
/C4 {BL [] 0 setdash 2 copy moveto
	2 copy vpt 180 270 arc closepath fill
	vpt 0 360 arc closepath} bind def
/C5 {BL [] 0 setdash 2 copy moveto
	2 copy vpt 0 90 arc
	2 copy moveto
	2 copy vpt 180 270 arc closepath fill
	vpt 0 360 arc} bind def
/C6 {BL [] 0 setdash 2 copy moveto
	2 copy vpt 90 270 arc closepath fill
	vpt 0 360 arc closepath} bind def
/C7 {BL [] 0 setdash 2 copy moveto
	2 copy vpt 0 270 arc closepath fill
	vpt 0 360 arc closepath} bind def
/C8 {BL [] 0 setdash 2 copy moveto
	2 copy vpt 270 360 arc closepath fill
	vpt 0 360 arc closepath} bind def
/C9 {BL [] 0 setdash 2 copy moveto
	2 copy vpt 270 450 arc closepath fill
	vpt 0 360 arc closepath} bind def
/C10 {BL [] 0 setdash 2 copy 2 copy moveto vpt 270 360 arc closepath fill
	2 copy moveto
	2 copy vpt 90 180 arc closepath fill
	vpt 0 360 arc closepath} bind def
/C11 {BL [] 0 setdash 2 copy moveto
	2 copy vpt 0 180 arc closepath fill
	2 copy moveto
	2 copy vpt 270 360 arc closepath fill
	vpt 0 360 arc closepath} bind def
/C12 {BL [] 0 setdash 2 copy moveto
	2 copy vpt 180 360 arc closepath fill
	vpt 0 360 arc closepath} bind def
/C13 {BL [] 0 setdash 2 copy moveto
	2 copy vpt 0 90 arc closepath fill
	2 copy moveto
	2 copy vpt 180 360 arc closepath fill
	vpt 0 360 arc closepath} bind def
/C14 {BL [] 0 setdash 2 copy moveto
	2 copy vpt 90 360 arc closepath fill
	vpt 0 360 arc} bind def
/C15 {BL [] 0 setdash 2 copy vpt 0 360 arc closepath fill
	vpt 0 360 arc closepath} bind def
/Rec {newpath 4 2 roll moveto 1 index 0 rlineto 0 exch rlineto
	neg 0 rlineto closepath} bind def
/Square {dup Rec} bind def
/Bsquare {vpt sub exch vpt sub exch vpt2 Square} bind def
/S0 {BL [] 0 setdash 2 copy moveto 0 vpt rlineto BL Bsquare} bind def
/S1 {BL [] 0 setdash 2 copy vpt Square fill Bsquare} bind def
/S2 {BL [] 0 setdash 2 copy exch vpt sub exch vpt Square fill Bsquare} bind def
/S3 {BL [] 0 setdash 2 copy exch vpt sub exch vpt2 vpt Rec fill Bsquare} bind def
/S4 {BL [] 0 setdash 2 copy exch vpt sub exch vpt sub vpt Square fill Bsquare} bind def
/S5 {BL [] 0 setdash 2 copy 2 copy vpt Square fill
	exch vpt sub exch vpt sub vpt Square fill Bsquare} bind def
/S6 {BL [] 0 setdash 2 copy exch vpt sub exch vpt sub vpt vpt2 Rec fill Bsquare} bind def
/S7 {BL [] 0 setdash 2 copy exch vpt sub exch vpt sub vpt vpt2 Rec fill
	2 copy vpt Square fill Bsquare} bind def
/S8 {BL [] 0 setdash 2 copy vpt sub vpt Square fill Bsquare} bind def
/S9 {BL [] 0 setdash 2 copy vpt sub vpt vpt2 Rec fill Bsquare} bind def
/S10 {BL [] 0 setdash 2 copy vpt sub vpt Square fill 2 copy exch vpt sub exch vpt Square fill
	Bsquare} bind def
/S11 {BL [] 0 setdash 2 copy vpt sub vpt Square fill 2 copy exch vpt sub exch vpt2 vpt Rec fill
	Bsquare} bind def
/S12 {BL [] 0 setdash 2 copy exch vpt sub exch vpt sub vpt2 vpt Rec fill Bsquare} bind def
/S13 {BL [] 0 setdash 2 copy exch vpt sub exch vpt sub vpt2 vpt Rec fill
	2 copy vpt Square fill Bsquare} bind def
/S14 {BL [] 0 setdash 2 copy exch vpt sub exch vpt sub vpt2 vpt Rec fill
	2 copy exch vpt sub exch vpt Square fill Bsquare} bind def
/S15 {BL [] 0 setdash 2 copy Bsquare fill Bsquare} bind def
/D0 {gsave translate 45 rotate 0 0 S0 stroke grestore} bind def
/D1 {gsave translate 45 rotate 0 0 S1 stroke grestore} bind def
/D2 {gsave translate 45 rotate 0 0 S2 stroke grestore} bind def
/D3 {gsave translate 45 rotate 0 0 S3 stroke grestore} bind def
/D4 {gsave translate 45 rotate 0 0 S4 stroke grestore} bind def
/D5 {gsave translate 45 rotate 0 0 S5 stroke grestore} bind def
/D6 {gsave translate 45 rotate 0 0 S6 stroke grestore} bind def
/D7 {gsave translate 45 rotate 0 0 S7 stroke grestore} bind def
/D8 {gsave translate 45 rotate 0 0 S8 stroke grestore} bind def
/D9 {gsave translate 45 rotate 0 0 S9 stroke grestore} bind def
/D10 {gsave translate 45 rotate 0 0 S10 stroke grestore} bind def
/D11 {gsave translate 45 rotate 0 0 S11 stroke grestore} bind def
/D12 {gsave translate 45 rotate 0 0 S12 stroke grestore} bind def
/D13 {gsave translate 45 rotate 0 0 S13 stroke grestore} bind def
/D14 {gsave translate 45 rotate 0 0 S14 stroke grestore} bind def
/D15 {gsave translate 45 rotate 0 0 S15 stroke grestore} bind def
/DiaE {stroke [] 0 setdash vpt add M
  hpt neg vpt neg V hpt vpt neg V
  hpt vpt V hpt neg vpt V closepath stroke} def
/BoxE {stroke [] 0 setdash exch hpt sub exch vpt add M
  0 vpt2 neg V hpt2 0 V 0 vpt2 V
  hpt2 neg 0 V closepath stroke} def
/TriUE {stroke [] 0 setdash vpt 1.12 mul add M
  hpt neg vpt -1.62 mul V
  hpt 2 mul 0 V
  hpt neg vpt 1.62 mul V closepath stroke} def
/TriDE {stroke [] 0 setdash vpt 1.12 mul sub M
  hpt neg vpt 1.62 mul V
  hpt 2 mul 0 V
  hpt neg vpt -1.62 mul V closepath stroke} def
/PentE {stroke [] 0 setdash gsave
  translate 0 hpt M 4 {72 rotate 0 hpt L} repeat
  closepath stroke grestore} def
/CircE {stroke [] 0 setdash 
  hpt 0 360 arc stroke} def
/Opaque {gsave closepath 1 setgray fill grestore 0 setgray closepath} def
/DiaW {stroke [] 0 setdash vpt add M
  hpt neg vpt neg V hpt vpt neg V
  hpt vpt V hpt neg vpt V Opaque stroke} def
/BoxW {stroke [] 0 setdash exch hpt sub exch vpt add M
  0 vpt2 neg V hpt2 0 V 0 vpt2 V
  hpt2 neg 0 V Opaque stroke} def
/TriUW {stroke [] 0 setdash vpt 1.12 mul add M
  hpt neg vpt -1.62 mul V
  hpt 2 mul 0 V
  hpt neg vpt 1.62 mul V Opaque stroke} def
/TriDW {stroke [] 0 setdash vpt 1.12 mul sub M
  hpt neg vpt 1.62 mul V
  hpt 2 mul 0 V
  hpt neg vpt -1.62 mul V Opaque stroke} def
/PentW {stroke [] 0 setdash gsave
  translate 0 hpt M 4 {72 rotate 0 hpt L} repeat
  Opaque stroke grestore} def
/CircW {stroke [] 0 setdash 
  hpt 0 360 arc Opaque stroke} def
/BoxFill {gsave Rec 1 setgray fill grestore} def
/Density {
  /Fillden exch def
  currentrgbcolor
  /ColB exch def /ColG exch def /ColR exch def
  /ColR ColR Fillden mul Fillden sub 1 add def
  /ColG ColG Fillden mul Fillden sub 1 add def
  /ColB ColB Fillden mul Fillden sub 1 add def
  ColR ColG ColB setrgbcolor} def
/BoxColFill {gsave Rec PolyFill} def
/PolyFill {gsave Density fill grestore grestore} def
/h {rlineto rlineto rlineto gsave closepath fill grestore} bind def
%
% PostScript Level 1 Pattern Fill routine for rectangles
% Usage: x y w h s a XX PatternFill
%	x,y = lower left corner of box to be filled
%	w,h = width and height of box
%	  a = angle in degrees between lines and x-axis
%	 XX = 0/1 for no/yes cross-hatch
%
/PatternFill {gsave /PFa [ 9 2 roll ] def
  PFa 0 get PFa 2 get 2 div add PFa 1 get PFa 3 get 2 div add translate
  PFa 2 get -2 div PFa 3 get -2 div PFa 2 get PFa 3 get Rec
  TransparentPatterns {} {gsave 1 setgray fill grestore} ifelse
  clip
  currentlinewidth 0.5 mul setlinewidth
  /PFs PFa 2 get dup mul PFa 3 get dup mul add sqrt def
  0 0 M PFa 5 get rotate PFs -2 div dup translate
  0 1 PFs PFa 4 get div 1 add floor cvi
	{PFa 4 get mul 0 M 0 PFs V} for
  0 PFa 6 get ne {
	0 1 PFs PFa 4 get div 1 add floor cvi
	{PFa 4 get mul 0 2 1 roll M PFs 0 V} for
 } if
  stroke grestore} def
%
/languagelevel where
 {pop languagelevel} {1} ifelse
dup 2 lt
	{/InterpretLevel1 true def
	 /InterpretLevel3 false def}
	{/InterpretLevel1 Level1 def
	 2 gt
	    {/InterpretLevel3 Level3 def}
	    {/InterpretLevel3 false def}
	 ifelse }
 ifelse
%
% PostScript level 2 pattern fill definitions
%
/Level2PatternFill {
/Tile8x8 {/PaintType 2 /PatternType 1 /TilingType 1 /BBox [0 0 8 8] /XStep 8 /YStep 8}
	bind def
/KeepColor {currentrgbcolor [/Pattern /DeviceRGB] setcolorspace} bind def
<< Tile8x8
 /PaintProc {0.5 setlinewidth pop 0 0 M 8 8 L 0 8 M 8 0 L stroke} 
>> matrix makepattern
/Pat1 exch def
<< Tile8x8
 /PaintProc {0.5 setlinewidth pop 0 0 M 8 8 L 0 8 M 8 0 L stroke
	0 4 M 4 8 L 8 4 L 4 0 L 0 4 L stroke}
>> matrix makepattern
/Pat2 exch def
<< Tile8x8
 /PaintProc {0.5 setlinewidth pop 0 0 M 0 8 L
	8 8 L 8 0 L 0 0 L fill}
>> matrix makepattern
/Pat3 exch def
<< Tile8x8
 /PaintProc {0.5 setlinewidth pop -4 8 M 8 -4 L
	0 12 M 12 0 L stroke}
>> matrix makepattern
/Pat4 exch def
<< Tile8x8
 /PaintProc {0.5 setlinewidth pop -4 0 M 8 12 L
	0 -4 M 12 8 L stroke}
>> matrix makepattern
/Pat5 exch def
<< Tile8x8
 /PaintProc {0.5 setlinewidth pop -2 8 M 4 -4 L
	0 12 M 8 -4 L 4 12 M 10 0 L stroke}
>> matrix makepattern
/Pat6 exch def
<< Tile8x8
 /PaintProc {0.5 setlinewidth pop -2 0 M 4 12 L
	0 -4 M 8 12 L 4 -4 M 10 8 L stroke}
>> matrix makepattern
/Pat7 exch def
<< Tile8x8
 /PaintProc {0.5 setlinewidth pop 8 -2 M -4 4 L
	12 0 M -4 8 L 12 4 M 0 10 L stroke}
>> matrix makepattern
/Pat8 exch def
<< Tile8x8
 /PaintProc {0.5 setlinewidth pop 0 -2 M 12 4 L
	-4 0 M 12 8 L -4 4 M 8 10 L stroke}
>> matrix makepattern
/Pat9 exch def
/Pattern1 {PatternBgnd KeepColor Pat1 setpattern} bind def
/Pattern2 {PatternBgnd KeepColor Pat2 setpattern} bind def
/Pattern3 {PatternBgnd KeepColor Pat3 setpattern} bind def
/Pattern4 {PatternBgnd KeepColor Landscape {Pat5} {Pat4} ifelse setpattern} bind def
/Pattern5 {PatternBgnd KeepColor Landscape {Pat4} {Pat5} ifelse setpattern} bind def
/Pattern6 {PatternBgnd KeepColor Landscape {Pat9} {Pat6} ifelse setpattern} bind def
/Pattern7 {PatternBgnd KeepColor Landscape {Pat8} {Pat7} ifelse setpattern} bind def
} def
%
%
%End of PostScript Level 2 code
%
/PatternBgnd {
  TransparentPatterns {} {gsave 1 setgray fill grestore} ifelse
} def
%
% Substitute for Level 2 pattern fill codes with
% grayscale if Level 2 support is not selected.
%
/Level1PatternFill {
/Pattern1 {0.250 Density} bind def
/Pattern2 {0.500 Density} bind def
/Pattern3 {0.750 Density} bind def
/Pattern4 {0.125 Density} bind def
/Pattern5 {0.375 Density} bind def
/Pattern6 {0.625 Density} bind def
/Pattern7 {0.875 Density} bind def
} def
%
% Now test for support of Level 2 code
%
Level1 {Level1PatternFill} {Level2PatternFill} ifelse
%
/Symbol-Oblique /Symbol findfont [1 0 .167 1 0 0] makefont
dup length dict begin {1 index /FID eq {pop pop} {def} ifelse} forall
currentdict end definefont pop
%
/MFshow {
   { dup 5 get 3 ge
     { 5 get 3 eq {gsave} {grestore} ifelse }
     {dup dup 0 get findfont exch 1 get scalefont setfont
     [ currentpoint ] exch dup 2 get 0 exch R dup 5 get 2 ne {dup dup 6
     get exch 4 get {textshow} {stringwidth pop 0 R} ifelse }if dup 5 get 0 eq
     {dup 3 get {2 get neg 0 exch R pop} {pop aload pop M} ifelse} {dup 5
     get 1 eq {dup 2 get exch dup 3 get exch 6 get stringwidth pop -2 div
     dup 0 R} {dup 6 get stringwidth pop -2 div 0 R 6 get
     textshow 2 index {aload pop M neg 3 -1 roll neg R pop pop} {pop pop pop
     pop aload pop M} ifelse }ifelse }ifelse }
     ifelse }
   forall} def
/Gswidth {dup type /stringtype eq {stringwidth} {pop (n) stringwidth} ifelse} def
/MFwidth {0 exch { dup 5 get 3 ge { 5 get 3 eq { 0 } { pop } ifelse }
 {dup 3 get{dup dup 0 get findfont exch 1 get scalefont setfont
     6 get Gswidth pop add} {pop} ifelse} ifelse} forall} def
/MLshow { currentpoint stroke M
  0 exch R
  Blacktext {gsave 0 setgray MFshow grestore} {MFshow} ifelse } bind def
/MRshow { currentpoint stroke M
  exch dup MFwidth neg 3 -1 roll R
  Blacktext {gsave 0 setgray MFshow grestore} {MFshow} ifelse } bind def
/MCshow { currentpoint stroke M
  exch dup MFwidth -2 div 3 -1 roll R
  Blacktext {gsave 0 setgray MFshow grestore} {MFshow} ifelse } bind def
/XYsave    { [( ) 1 2 true false 3 ()] } bind def
/XYrestore { [( ) 1 2 true false 4 ()] } bind def
Level1 SuppressPDFMark or 
{} {
/SDict 10 dict def
systemdict /pdfmark known not {
  userdict /pdfmark systemdict /cleartomark get put
} if
SDict begin [
  /Title (Zvarn_Rgz_mul.eps)
  /Subject (gnuplot plot)
  /Creator (gnuplot 5.0 patchlevel 3)
  /Author (debarshee)
%  /Producer (gnuplot)
%  /Keywords ()
  /CreationDate (Fri Apr 17 15:34:19 2020)
  /DOCINFO pdfmark
end
} ifelse
%
% Support for boxed text - Ethan A Merritt May 2005
%
/InitTextBox { userdict /TBy2 3 -1 roll put userdict /TBx2 3 -1 roll put
           userdict /TBy1 3 -1 roll put userdict /TBx1 3 -1 roll put
	   /Boxing true def } def
/ExtendTextBox { Boxing
    { gsave dup false charpath pathbbox
      dup TBy2 gt {userdict /TBy2 3 -1 roll put} {pop} ifelse
      dup TBx2 gt {userdict /TBx2 3 -1 roll put} {pop} ifelse
      dup TBy1 lt {userdict /TBy1 3 -1 roll put} {pop} ifelse
      dup TBx1 lt {userdict /TBx1 3 -1 roll put} {pop} ifelse
      grestore } if } def
/PopTextBox { newpath TBx1 TBxmargin sub TBy1 TBymargin sub M
               TBx1 TBxmargin sub TBy2 TBymargin add L
	       TBx2 TBxmargin add TBy2 TBymargin add L
	       TBx2 TBxmargin add TBy1 TBymargin sub L closepath } def
/DrawTextBox { PopTextBox stroke /Boxing false def} def
/FillTextBox { gsave PopTextBox 1 1 1 setrgbcolor fill grestore /Boxing false def} def
0 0 0 0 InitTextBox
/TBxmargin 20 def
/TBymargin 20 def
/Boxing false def
/textshow { ExtendTextBox Gshow } def
%
% redundant definitions for compatibility with prologue.ps older than 5.0.2
/LTB {BL [] LCb DL} def
/LTb {PL [] LCb DL} def
end
%%EndProlog
%%Page: 1 1
gnudict begin
gsave
doclip
50 50 translate
0.050 0.050 scale
0 setgray
newpath
(Helvetica) findfont 300 scalefont setfont
BackgroundColor 0 lt 3 1 roll 0 lt exch 0 lt or or not {BackgroundColor C 1.000 0 0 7200.00 5040.00 BoxColFill} if
1.000 UL
LTb
LCb setrgbcolor
1182 960 M
63 0 V
5414 0 R
-63 0 V
stroke
1002 960 M
[ [(Helvetica) 300.0 0.0 true true 0 ( 0)]
] -100.0 MRshow
1.000 UL
LTb
LCb setrgbcolor
1182 1491 M
63 0 V
5414 0 R
-63 0 V
stroke
1002 1491 M
[ [(Helvetica) 300.0 0.0 true true 0 ( 0.2)]
] -100.0 MRshow
1.000 UL
LTb
LCb setrgbcolor
1182 2023 M
63 0 V
5414 0 R
-63 0 V
stroke
1002 2023 M
[ [(Helvetica) 300.0 0.0 true true 0 ( 0.4)]
] -100.0 MRshow
1.000 UL
LTb
LCb setrgbcolor
1182 2554 M
63 0 V
5414 0 R
-63 0 V
stroke
1002 2554 M
[ [(Helvetica) 300.0 0.0 true true 0 ( 0.6)]
] -100.0 MRshow
1.000 UL
LTb
LCb setrgbcolor
1182 3085 M
63 0 V
5414 0 R
-63 0 V
stroke
1002 3085 M
[ [(Helvetica) 300.0 0.0 true true 0 ( 0.8)]
] -100.0 MRshow
1.000 UL
LTb
LCb setrgbcolor
1182 3616 M
63 0 V
5414 0 R
-63 0 V
stroke
1002 3616 M
[ [(Helvetica) 300.0 0.0 true true 0 ( 1)]
] -100.0 MRshow
1.000 UL
LTb
LCb setrgbcolor
1182 4148 M
63 0 V
5414 0 R
-63 0 V
stroke
1002 4148 M
[ [(Helvetica) 300.0 0.0 true true 0 ( 1.2)]
] -100.0 MRshow
1.000 UL
LTb
LCb setrgbcolor
1182 4679 M
63 0 V
5414 0 R
-63 0 V
stroke
1002 4679 M
[ [(Helvetica) 300.0 0.0 true true 0 ( 1.4)]
] -100.0 MRshow
1.000 UL
LTb
LCb setrgbcolor
1182 960 M
0 63 V
0 3656 R
0 -63 V
stroke
1182 660 M
[ [(Helvetica) 300.0 0.0 true true 0 ( 0)]
] -100.0 MCshow
1.000 UL
LTb
LCb setrgbcolor
2277 960 M
0 63 V
0 3656 R
0 -63 V
stroke
2277 660 M
[ [(Helvetica) 300.0 0.0 true true 0 ( 0.1)]
] -100.0 MCshow
1.000 UL
LTb
LCb setrgbcolor
3373 960 M
0 63 V
0 3656 R
0 -63 V
stroke
3373 660 M
[ [(Helvetica) 300.0 0.0 true true 0 ( 0.2)]
] -100.0 MCshow
1.000 UL
LTb
LCb setrgbcolor
4468 960 M
0 63 V
0 3656 R
0 -63 V
stroke
4468 660 M
[ [(Helvetica) 300.0 0.0 true true 0 ( 0.3)]
] -100.0 MCshow
1.000 UL
LTb
LCb setrgbcolor
5564 960 M
0 63 V
0 3656 R
0 -63 V
stroke
5564 660 M
[ [(Helvetica) 300.0 0.0 true true 0 ( 0.4)]
] -100.0 MCshow
1.000 UL
LTb
LCb setrgbcolor
6659 960 M
0 63 V
0 3656 R
0 -63 V
stroke
6659 660 M
[ [(Helvetica) 300.0 0.0 true true 0 ( 0.5)]
] -100.0 MCshow
1.000 UL
LTb
LCb setrgbcolor
1.000 UL
LTB
LCb setrgbcolor
1182 4679 N
0 -3719 V
5477 0 V
0 3719 V
-5477 0 V
Z stroke
1.000 UP
LCb setrgbcolor
1401 4413 M
[ [(Helvetica) 300.0 0.0 true true 0 (\(c\))]
] -100.0 MLshow
1.000 UL
LTb
LCb setrgbcolor
LCb setrgbcolor
240 2819 M
currentpoint gsave translate -270 rotate 0 0 moveto
[ [(Helvetica) 300.0 0.0 true true 0 (3 Rg)]
[(Helvetica) 240.0 -90.0 true true 0 (z)]
[(Helvetica) 240.0 150.0 true true 0 (2)]
[(Helvetica) 300.0 0.0 true true 0 (\(z\)/Rg)]
[(Helvetica) 240.0 150.0 true true 0 (2)]
[(Helvetica) 300.0 0.0 true true 0 (\(z\))]
] -100.0 MCshow
grestore
LTb
LCb setrgbcolor
3920 210 M
[ [(Helvetica) 300.0 0.0 true true 0 (z / H)]
] -100.0 MCshow
LTb
% Begin plot #1
4.000 UL
LTb
1.00 0.00 0.00 C LCb setrgbcolor
5336 4428 M
[ [(Helvetica) 300.0 0.0 true true 0 (Polyeletrolyte w/Polr)]
] -100.0 MRshow
4.000 UL
LTb
1.00 0.00 0.00 C 5516 4428 M
783 0 V
1346 1403 M
55 -134 V
55 176 V
55 240 V
54 309 V
55 345 V
55 393 V
55 422 V
54 408 V
55 343 V
55 225 V
55 173 V
55 125 V
54 -40 V
55 -109 V
55 -97 V
55 -220 V
54 -271 V
55 -100 V
55 -67 V
55 -29 V
54 -43 V
55 -13 V
55 8 V
55 12 V
55 28 V
54 24 V
55 21 V
55 -11 V
55 29 V
54 4 V
55 45 V
55 -1 V
55 40 V
54 -8 V
55 -17 V
55 -4 V
55 -6 V
55 -35 V
54 -3 V
55 -38 V
55 26 V
55 3 V
54 -13 V
55 -2 V
55 20 V
55 -39 V
55 -7 V
54 20 V
55 21 V
55 -18 V
55 12 V
54 -8 V
55 10 V
55 87 V
55 -35 V
54 -58 V
55 -4 V
55 45 V
55 28 V
55 -89 V
54 40 V
55 34 V
55 11 V
55 33 V
54 -6 V
55 26 V
55 -9 V
55 35 V
54 -40 V
55 -18 V
55 -24 V
55 -3 V
55 21 V
54 7 V
55 5 V
55 -45 V
55 -2 V
54 -29 V
55 -13 V
55 -31 V
55 17 V
54 35 V
55 -14 V
55 23 V
55 -16 V
55 11 V
54 0 V
55 29 V
55 31 V
55 17 V
54 43 V
55 -51 V
55 -47 V
55 21 V
54 -3 V
55 -22 V
55 -16 V
% End plot #1
% Begin plot #2
stroke
1.000 UL
LTb
LCb setrgbcolor
1182 3616 M
55 0 V
56 0 V
55 0 V
55 0 V
56 0 V
55 0 V
55 0 V
56 0 V
55 0 V
55 0 V
56 0 V
55 0 V
55 0 V
56 0 V
55 0 V
55 0 V
55 0 V
56 0 V
55 0 V
55 0 V
56 0 V
55 0 V
55 0 V
56 0 V
55 0 V
55 0 V
56 0 V
55 0 V
55 0 V
56 0 V
55 0 V
55 0 V
56 0 V
55 0 V
55 0 V
56 0 V
55 0 V
55 0 V
56 0 V
55 0 V
55 0 V
56 0 V
55 0 V
55 0 V
56 0 V
55 0 V
55 0 V
56 0 V
55 0 V
55 0 V
55 0 V
56 0 V
55 0 V
55 0 V
56 0 V
55 0 V
55 0 V
56 0 V
55 0 V
55 0 V
56 0 V
55 0 V
55 0 V
56 0 V
55 0 V
55 0 V
56 0 V
55 0 V
55 0 V
56 0 V
55 0 V
55 0 V
56 0 V
55 0 V
55 0 V
56 0 V
55 0 V
55 0 V
56 0 V
55 0 V
55 0 V
56 0 V
55 0 V
55 0 V
55 0 V
56 0 V
55 0 V
55 0 V
56 0 V
55 0 V
55 0 V
56 0 V
55 0 V
55 0 V
56 0 V
55 0 V
55 0 V
56 0 V
55 0 V
% End plot #2
% Begin plot #3
stroke
5.000 UL
LTb
LT3
0.00 0.00 1.00 C LCb setrgbcolor
5336 4053 M
[ [(Helvetica) 300.0 0.0 true true 0 (Polyeletrolyte wo/Polr)]
] -100.0 MRshow
5.000 UL
LTb
LT3
0.00 0.00 1.00 C 5516 4053 M
783 0 V
1328 1069 M
73 337 V
73 348 V
73 453 V
73 486 V
73 502 V
73 400 V
73 274 V
73 216 V
73 93 V
73 20 V
73 -50 V
73 -100 V
73 -122 V
73 -210 V
73 -84 V
73 -115 V
74 -46 V
73 3 V
73 -50 V
73 20 V
73 68 V
73 43 V
73 14 V
73 38 V
73 31 V
73 -47 V
73 48 V
73 27 V
73 52 V
73 -27 V
73 19 V
73 -33 V
73 -67 V
73 7 V
73 -14 V
73 -30 V
73 41 V
73 17 V
73 -31 V
73 39 V
73 -25 V
73 -67 V
73 -28 V
73 -17 V
73 59 V
73 -4 V
73 32 V
73 -9 V
73 8 V
73 -16 V
73 -31 V
73 -30 V
73 69 V
73 23 V
74 -9 V
73 -14 V
73 -32 V
73 -12 V
73 -20 V
73 0 V
73 16 V
73 44 V
73 -32 V
73 54 V
73 -20 V
73 -18 V
73 25 V
73 -1 V
73 -26 V
73 -1 V
73 -42 V
73 43 V
73 29 V
% End plot #3
% Begin plot #4
stroke
1.000 UL
LTb
LCb setrgbcolor
1182 960 M
55 0 V
56 0 V
55 0 V
55 0 V
56 0 V
55 0 V
55 0 V
56 0 V
55 0 V
55 0 V
56 0 V
55 0 V
55 0 V
56 0 V
55 0 V
55 0 V
55 0 V
56 0 V
55 0 V
55 0 V
56 0 V
55 0 V
55 0 V
56 0 V
55 0 V
55 0 V
56 0 V
55 0 V
55 0 V
56 0 V
55 0 V
55 0 V
56 0 V
55 0 V
55 0 V
56 0 V
55 0 V
55 0 V
56 0 V
55 0 V
55 0 V
56 0 V
55 0 V
55 0 V
56 0 V
55 0 V
55 0 V
56 0 V
55 0 V
55 0 V
55 0 V
56 0 V
55 0 V
55 0 V
56 0 V
55 0 V
55 0 V
56 0 V
55 0 V
55 0 V
56 0 V
55 0 V
55 0 V
56 0 V
55 0 V
55 0 V
56 0 V
55 0 V
55 0 V
56 0 V
55 0 V
55 0 V
56 0 V
55 0 V
55 0 V
56 0 V
55 0 V
55 0 V
56 0 V
55 0 V
55 0 V
56 0 V
55 0 V
55 0 V
55 0 V
56 0 V
55 0 V
55 0 V
56 0 V
55 0 V
55 0 V
56 0 V
55 0 V
55 0 V
56 0 V
55 0 V
55 0 V
56 0 V
55 0 V
% End plot #4
stroke
2.000 UL
LTb
LCb setrgbcolor
1.000 UL
LTB
LCb setrgbcolor
1182 4679 N
0 -3719 V
5477 0 V
0 3719 V
-5477 0 V
Z stroke
1.000 UP
1.000 UL
LTb
LCb setrgbcolor
1.000 UL
LTb
LCb setrgbcolor
2537 2949 M
63 0 V
3807 0 R
-63 0 V
stroke
2357 2949 M
[ [(Helvetica) 300.0 0.0 true true 0 (1)]
] -100.0 MRshow
1.000 UL
LTb
LCb setrgbcolor
1.000 UL
LTB
LCb setrgbcolor
2537 3198 N
0 -969 V
3870 0 V
0 969 V
-3870 0 V
Z stroke
1.000 UP
LCb setrgbcolor
4472 2705 M
[ [(Helvetica) 260.0 0.0 true true 0 (3 Rg)]
[(Helvetica) 208.0 -78.0 true true 0 (z)]
[(Helvetica) 208.0 130.0 true true 0 (2)]
[(Helvetica) 260.0 0.0 true true 0 (\(z\)/Rg)]
[(Helvetica) 208.0 130.0 true true 0 (2)]
[(Helvetica) 260.0 0.0 true true 0 (\(z\))]
] -86.7 MLshow
2.000 UL
LTb
LCb setrgbcolor
2963 2314 M
0 -245 V
stroke
LTb
LCb setrgbcolor
3350 2314 M
0 -245 V
stroke
LTb
LCb setrgbcolor
3930 2314 M
0 -245 V
stroke
1.000 UL
LTb
LCb setrgbcolor
% Begin plot #1
4.000 UL
LTb
1.00 0.00 0.00 C 2653 2270 M
39 -41 V
39 54 V
38 74 V
39 94 V
39 106 V
38 121 V
39 129 V
39 125 V
38 106 V
39 69 V
39 53 V
39 38 V
38 -12 V
39 -33 V
39 -30 V
38 -68 V
39 -83 V
39 -31 V
38 -20 V
39 -9 V
39 -13 V
39 -4 V
38 2 V
39 4 V
39 8 V
38 8 V
39 6 V
39 -3 V
38 9 V
39 1 V
39 14 V
39 0 V
38 12 V
39 -3 V
39 -5 V
38 -1 V
39 -2 V
39 -11 V
38 -1 V
39 -11 V
39 8 V
39 1 V
38 -4 V
39 -1 V
39 6 V
38 -12 V
39 -2 V
39 6 V
38 7 V
39 -6 V
39 4 V
39 -3 V
38 3 V
39 27 V
39 -11 V
38 -17 V
39 -2 V
39 14 V
38 9 V
39 -28 V
39 13 V
39 10 V
38 3 V
39 11 V
39 -2 V
38 8 V
39 -3 V
39 11 V
38 -13 V
39 -5 V
39 -8 V
39 0 V
38 6 V
39 2 V
39 2 V
38 -14 V
39 -1 V
39 -9 V
38 -4 V
39 -9 V
39 5 V
39 11 V
38 -4 V
39 7 V
39 -5 V
38 3 V
39 0 V
39 9 V
38 10 V
39 5 V
39 13 V
39 -16 V
38 -14 V
39 6 V
39 -1 V
38 -6 V
39 -5 V
% End plot #1
% Begin plot #2
stroke
1.000 UL
LTb
LCb setrgbcolor
2537 2949 M
39 0 V
39 0 V
39 0 V
39 0 V
39 0 V
40 0 V
39 0 V
39 0 V
39 0 V
39 0 V
39 0 V
39 0 V
39 0 V
39 0 V
39 0 V
39 0 V
40 0 V
39 0 V
39 0 V
39 0 V
39 0 V
39 0 V
39 0 V
39 0 V
39 0 V
39 0 V
39 0 V
40 0 V
39 0 V
39 0 V
39 0 V
39 0 V
39 0 V
39 0 V
39 0 V
39 0 V
39 0 V
39 0 V
40 0 V
39 0 V
39 0 V
39 0 V
39 0 V
39 0 V
39 0 V
39 0 V
39 0 V
39 0 V
39 0 V
40 0 V
39 0 V
39 0 V
39 0 V
39 0 V
39 0 V
39 0 V
39 0 V
39 0 V
39 0 V
39 0 V
40 0 V
39 0 V
39 0 V
39 0 V
39 0 V
39 0 V
39 0 V
39 0 V
39 0 V
39 0 V
39 0 V
40 0 V
39 0 V
39 0 V
39 0 V
39 0 V
39 0 V
39 0 V
39 0 V
39 0 V
39 0 V
39 0 V
40 0 V
39 0 V
39 0 V
39 0 V
39 0 V
39 0 V
39 0 V
39 0 V
39 0 V
39 0 V
39 0 V
40 0 V
39 0 V
39 0 V
39 0 V
39 0 V
39 0 V
% End plot #2
stroke
2.000 UL
LTb
LCb setrgbcolor
1.000 UL
LTB
LCb setrgbcolor
2537 3198 N
0 -969 V
3870 0 V
0 969 V
-3870 0 V
Z stroke
1.000 UP
1.000 UL
LTb
LCb setrgbcolor
1.000 UL
LTb
LCb setrgbcolor
2537 2026 M
63 0 V
3807 0 R
-63 0 V
stroke
2357 2026 M
[ [(Helvetica) 300.0 0.0 true true 0 (0)]
] -100.0 MRshow
1.000 UL
LTb
LCb setrgbcolor
2537 1381 M
0 63 V
0 741 R
0 -63 V
stroke
2537 1081 M
[ [(Helvetica) 240.0 0.0 true true 0 ( 0)]
] -80.0 MCshow
1.000 UL
LTb
LCb setrgbcolor
3311 1381 M
0 63 V
0 741 R
0 -63 V
stroke
3311 1081 M
[ [(Helvetica) 240.0 0.0 true true 0 ( 0.1)]
] -80.0 MCshow
1.000 UL
LTb
LCb setrgbcolor
4085 1381 M
0 63 V
0 741 R
0 -63 V
stroke
4085 1081 M
[ [(Helvetica) 240.0 0.0 true true 0 ( 0.2)]
] -80.0 MCshow
1.000 UL
LTb
LCb setrgbcolor
4859 1381 M
0 63 V
0 741 R
0 -63 V
stroke
4859 1081 M
[ [(Helvetica) 240.0 0.0 true true 0 ( 0.3)]
] -80.0 MCshow
1.000 UL
LTb
LCb setrgbcolor
5633 1381 M
0 63 V
0 741 R
0 -63 V
stroke
5633 1081 M
[ [(Helvetica) 240.0 0.0 true true 0 ( 0.4)]
] -80.0 MCshow
1.000 UL
LTb
LCb setrgbcolor
6407 1381 M
0 63 V
0 741 R
0 -63 V
stroke
6407 1081 M
[ [(Helvetica) 240.0 0.0 true true 0 ( 0.5)]
] -80.0 MCshow
1.000 UL
LTb
LCb setrgbcolor
1.000 UL
LTB
LCb setrgbcolor
2537 2185 N
0 -804 V
3870 0 V
0 804 V
-3870 0 V
Z stroke
1.000 UP
LCb setrgbcolor
4859 1897 M
[ [(Symbol) 280.0 0.0 true true 0 (r)]
[(Helvetica) 280.0 0.0 true true 0 (\(z\))]
] -93.3 MLshow
2.000 UL
LTb
LCb setrgbcolor
2963 2978 M
0 -1297 V
stroke
LTb
LCb setrgbcolor
3350 2978 M
0 -1297 V
stroke
LTb
LCb setrgbcolor
3930 2978 M
0 -1297 V
stroke
1.000 UL
LTb
LCb setrgbcolor
% Begin plot #1
4.000 UL
LTb
0.00 0.39 0.00 C 2537 2026 M
8 0 V
7 0 V
8 0 V
8 0 V
8 0 V
7 0 V
8 1 V
8 11 V
8 75 V
7 71 V
8 1 V
8 -23 V
8 -19 V
7 -32 V
8 -44 V
8 -48 V
8 -49 V
7 -64 V
8 -66 V
8 -53 V
8 -61 V
7 -38 V
8 -59 V
8 -51 V
8 -42 V
7 -39 V
8 -35 V
8 -25 V
7 -19 V
8 -17 V
8 -20 V
8 2 V
7 11 V
8 -7 V
8 15 V
8 8 V
7 9 V
8 24 V
8 16 V
8 29 V
7 20 V
8 25 V
8 39 V
8 21 V
7 10 V
8 31 V
8 36 V
8 19 V
7 40 V
8 8 V
8 20 V
7 34 V
8 22 V
8 31 V
8 22 V
7 14 V
8 26 V
8 27 V
8 3 V
7 19 V
8 17 V
8 27 V
8 -10 V
7 29 V
8 5 V
8 12 V
8 11 V
7 3 V
8 14 V
8 4 V
8 9 V
7 13 V
8 2 V
8 1 V
8 10 V
7 0 V
8 2 V
8 7 V
7 -2 V
8 10 V
8 -5 V
8 8 V
7 -4 V
8 9 V
8 -5 V
8 -4 V
7 5 V
8 5 V
8 -3 V
8 1 V
7 -5 V
8 8 V
8 -8 V
8 -1 V
7 2 V
8 -8 V
8 1 V
8 -10 V
7 4 V
8 -2 V
8 -4 V
7 1 V
8 -9 V
8 7 V
stroke 3342 2102 M
8 -10 V
7 -5 V
8 -2 V
8 0 V
8 -11 V
7 -1 V
8 -1 V
8 3 V
8 1 V
7 -8 V
8 -10 V
8 6 V
8 -3 V
7 -13 V
8 2 V
8 0 V
8 -4 V
7 -2 V
8 -15 V
8 1 V
8 19 V
7 -8 V
8 -8 V
8 5 V
7 -12 V
8 3 V
8 -5 V
8 4 V
7 -4 V
8 -7 V
8 0 V
8 6 V
7 -3 V
8 2 V
8 -4 V
8 0 V
7 -1 V
8 -9 V
8 13 V
8 -3 V
7 -7 V
8 9 V
8 -2 V
8 -2 V
7 1 V
8 -3 V
8 -6 V
7 8 V
8 2 V
8 -5 V
8 4 V
7 -13 V
8 4 V
8 14 V
8 -8 V
7 -1 V
8 -6 V
8 11 V
8 -3 V
7 -15 V
8 15 V
8 -1 V
8 -2 V
7 -6 V
8 12 V
8 -1 V
8 -2 V
7 -5 V
8 6 V
8 -2 V
8 9 V
7 -14 V
8 13 V
8 -2 V
7 -9 V
8 0 V
8 9 V
8 2 V
7 -8 V
8 7 V
8 -1 V
8 -2 V
7 3 V
8 2 V
8 -2 V
8 -4 V
7 4 V
8 -3 V
8 19 V
8 -7 V
7 -11 V
8 9 V
8 -10 V
8 7 V
7 -11 V
8 12 V
8 -1 V
7 9 V
8 -5 V
8 -3 V
8 2 V
7 4 V
8 -5 V
8 4 V
stroke 4147 2031 M
8 -3 V
7 5 V
8 -3 V
8 -4 V
8 8 V
7 -6 V
8 0 V
8 -8 V
8 8 V
7 -1 V
8 -4 V
8 4 V
8 0 V
7 0 V
8 3 V
8 -5 V
8 -14 V
7 13 V
8 1 V
8 -3 V
7 8 V
8 -6 V
8 -4 V
8 3 V
7 -1 V
8 1 V
8 3 V
8 -9 V
7 9 V
8 -2 V
8 3 V
8 8 V
7 -3 V
8 -4 V
8 -1 V
8 -5 V
7 11 V
8 -10 V
8 -5 V
8 8 V
7 0 V
8 6 V
8 -2 V
7 -3 V
8 -1 V
8 -2 V
8 12 V
7 -6 V
8 3 V
8 -10 V
8 4 V
7 3 V
8 14 V
8 -3 V
8 -8 V
7 6 V
8 -7 V
8 2 V
8 -1 V
7 4 V
8 -8 V
8 7 V
8 -8 V
7 0 V
8 -2 V
8 9 V
8 -5 V
7 0 V
8 0 V
8 2 V
7 -4 V
8 2 V
8 0 V
8 0 V
7 -3 V
8 11 V
8 -5 V
8 -2 V
7 5 V
8 -1 V
8 -2 V
8 -5 V
7 -2 V
8 9 V
8 -5 V
8 3 V
7 -10 V
8 2 V
8 6 V
8 -8 V
7 1 V
8 6 V
8 -3 V
7 -5 V
8 8 V
8 -1 V
8 -7 V
7 -5 V
8 10 V
8 -2 V
8 2 V
7 -2 V
8 2 V
8 -2 V
stroke 4952 2025 M
8 -4 V
7 11 V
8 -4 V
8 0 V
8 1 V
7 0 V
8 -9 V
8 5 V
8 0 V
7 3 V
8 -2 V
8 4 V
8 -11 V
7 8 V
8 1 V
8 -4 V
7 4 V
8 -10 V
8 -1 V
8 7 V
7 -5 V
8 1 V
8 -4 V
8 5 V
7 -7 V
8 2 V
8 1 V
8 6 V
7 -2 V
8 -5 V
8 3 V
8 1 V
7 -3 V
8 10 V
8 -5 V
8 -2 V
7 1 V
8 -4 V
8 11 V
7 -11 V
8 5 V
8 6 V
8 -6 V
7 -9 V
8 10 V
8 -9 V
8 6 V
7 0 V
8 -5 V
8 6 V
8 -1 V
7 -4 V
8 4 V
8 1 V
8 -2 V
7 1 V
8 -3 V
8 9 V
8 -2 V
7 0 V
8 -2 V
8 11 V
8 -8 V
7 -3 V
8 2 V
8 9 V
7 -9 V
8 6 V
8 -2 V
8 -1 V
7 1 V
8 5 V
8 3 V
8 -9 V
7 8 V
8 -8 V
8 -8 V
8 6 V
7 4 V
8 -5 V
8 7 V
8 -2 V
7 4 V
8 -5 V
8 8 V
8 -1 V
7 -8 V
8 8 V
8 -5 V
7 -2 V
8 2 V
8 4 V
8 -2 V
7 3 V
8 -8 V
8 9 V
8 -1 V
7 -3 V
8 -2 V
8 1 V
8 1 V
7 -1 V
8 4 V
8 -4 V
stroke 5757 2031 M
8 -5 V
7 -2 V
8 -1 V
8 -4 V
8 8 V
7 4 V
8 -3 V
8 -4 V
8 17 V
7 -10 V
8 3 V
8 -4 V
7 -9 V
8 17 V
8 -8 V
8 -1 V
7 0 V
8 3 V
8 -7 V
8 7 V
7 -13 V
8 18 V
8 -5 V
8 -8 V
7 3 V
8 6 V
8 -2 V
8 -1 V
7 -5 V
8 5 V
8 2 V
8 -10 V
7 5 V
8 4 V
8 -3 V
7 -6 V
8 -2 V
8 16 V
8 -10 V
7 4 V
8 7 V
8 -7 V
8 8 V
7 -13 V
8 -1 V
8 5 V
8 -2 V
7 4 V
8 -8 V
8 7 V
8 -5 V
7 1 V
8 -4 V
8 1 V
8 6 V
7 -5 V
8 -3 V
8 4 V
8 -6 V
7 7 V
8 -4 V
8 3 V
7 7 V
8 2 V
8 -19 V
8 15 V
7 -2 V
8 -7 V
8 9 V
8 -4 V
7 4 V
8 1 V
8 -9 V
8 7 V
7 1 V
8 1 V
8 -3 V
8 6 V
7 -6 V
8 2 V
8 -6 V
8 1 V
7 -3 V
8 2 V
% End plot #1
% Begin plot #2
stroke
1.000 UL
LTb
LCb setrgbcolor
2537 2026 M
39 0 V
39 0 V
39 0 V
39 0 V
39 0 V
40 0 V
39 0 V
39 0 V
39 0 V
39 0 V
39 0 V
39 0 V
39 0 V
39 0 V
39 0 V
39 0 V
40 0 V
39 0 V
39 0 V
39 0 V
39 0 V
39 0 V
39 0 V
39 0 V
39 0 V
39 0 V
39 0 V
40 0 V
39 0 V
39 0 V
39 0 V
39 0 V
39 0 V
39 0 V
39 0 V
39 0 V
39 0 V
39 0 V
40 0 V
39 0 V
39 0 V
39 0 V
39 0 V
39 0 V
39 0 V
39 0 V
39 0 V
39 0 V
39 0 V
40 0 V
39 0 V
39 0 V
39 0 V
39 0 V
39 0 V
39 0 V
39 0 V
39 0 V
39 0 V
39 0 V
40 0 V
39 0 V
39 0 V
39 0 V
39 0 V
39 0 V
39 0 V
39 0 V
39 0 V
39 0 V
39 0 V
40 0 V
39 0 V
39 0 V
39 0 V
39 0 V
39 0 V
39 0 V
39 0 V
39 0 V
39 0 V
39 0 V
40 0 V
39 0 V
39 0 V
39 0 V
39 0 V
39 0 V
39 0 V
39 0 V
39 0 V
39 0 V
39 0 V
40 0 V
39 0 V
39 0 V
39 0 V
39 0 V
39 0 V
% End plot #2
stroke
2.000 UL
LTb
LCb setrgbcolor
1.000 UL
LTB
LCb setrgbcolor
2537 2185 N
0 -804 V
3870 0 V
0 804 V
-3870 0 V
Z stroke
1.000 UP
1.000 UL
LTb
LCb setrgbcolor
stroke
grestore
end
showpage
%%Trailer
%%DocumentFonts: Symbol Helvetica
