%!PS-Adobe-2.0 EPSF-2.0
%%Title: w_Polr.eps
%%Creator: gnuplot 5.0 patchlevel 3
%%CreationDate: Tue Jun 23 19:47:33 2020
%%DocumentFonts: (atend)
%%BoundingBox: 50 50 410 302
%%EndComments
%%BeginProlog
/gnudict 256 dict def
gnudict begin
%
% The following true/false flags may be edited by hand if desired.
% The unit line width and grayscale image gamma correction may also be changed.
%
/Color true def
/Blacktext false def
/Solid false def
/Dashlength 1 def
/Landscape false def
/Level1 false def
/Level3 false def
/Rounded false def
/ClipToBoundingBox false def
/SuppressPDFMark false def
/TransparentPatterns false def
/gnulinewidth 5.000 def
/userlinewidth gnulinewidth def
/Gamma 1.0 def
/BackgroundColor {-1.000 -1.000 -1.000} def
%
/vshift -86 def
/dl1 {
  10.0 Dashlength userlinewidth gnulinewidth div mul mul mul
  Rounded { currentlinewidth 0.75 mul sub dup 0 le { pop 0.01 } if } if
} def
/dl2 {
  10.0 Dashlength userlinewidth gnulinewidth div mul mul mul
  Rounded { currentlinewidth 0.75 mul add } if
} def
/hpt_ 31.5 def
/vpt_ 31.5 def
/hpt hpt_ def
/vpt vpt_ def
/doclip {
  ClipToBoundingBox {
    newpath 50 50 moveto 410 50 lineto 410 302 lineto 50 302 lineto closepath
    clip
  } if
} def
%
% Gnuplot Prolog Version 5.1 (Oct 2015)
%
%/SuppressPDFMark true def
%
/M {moveto} bind def
/L {lineto} bind def
/R {rmoveto} bind def
/V {rlineto} bind def
/N {newpath moveto} bind def
/Z {closepath} bind def
/C {setrgbcolor} bind def
/f {rlineto fill} bind def
/g {setgray} bind def
/Gshow {show} def   % May be redefined later in the file to support UTF-8
/vpt2 vpt 2 mul def
/hpt2 hpt 2 mul def
/Lshow {currentpoint stroke M 0 vshift R 
	Blacktext {gsave 0 setgray textshow grestore} {textshow} ifelse} def
/Rshow {currentpoint stroke M dup stringwidth pop neg vshift R
	Blacktext {gsave 0 setgray textshow grestore} {textshow} ifelse} def
/Cshow {currentpoint stroke M dup stringwidth pop -2 div vshift R 
	Blacktext {gsave 0 setgray textshow grestore} {textshow} ifelse} def
/UP {dup vpt_ mul /vpt exch def hpt_ mul /hpt exch def
  /hpt2 hpt 2 mul def /vpt2 vpt 2 mul def} def
/DL {Color {setrgbcolor Solid {pop []} if 0 setdash}
 {pop pop pop 0 setgray Solid {pop []} if 0 setdash} ifelse} def
/BL {stroke userlinewidth 2 mul setlinewidth
	Rounded {1 setlinejoin 1 setlinecap} if} def
/AL {stroke userlinewidth 2 div setlinewidth
	Rounded {1 setlinejoin 1 setlinecap} if} def
/UL {dup gnulinewidth mul /userlinewidth exch def
	dup 1 lt {pop 1} if 10 mul /udl exch def} def
/PL {stroke userlinewidth setlinewidth
	Rounded {1 setlinejoin 1 setlinecap} if} def
3.8 setmiterlimit
% Classic Line colors (version 5.0)
/LCw {1 1 1} def
/LCb {0 0 0} def
/LCa {0 0 0} def
/LC0 {1 0 0} def
/LC1 {0 1 0} def
/LC2 {0 0 1} def
/LC3 {1 0 1} def
/LC4 {0 1 1} def
/LC5 {1 1 0} def
/LC6 {0 0 0} def
/LC7 {1 0.3 0} def
/LC8 {0.5 0.5 0.5} def
% Default dash patterns (version 5.0)
/LTB {BL [] LCb DL} def
/LTw {PL [] 1 setgray} def
/LTb {PL [] LCb DL} def
/LTa {AL [1 udl mul 2 udl mul] 0 setdash LCa setrgbcolor} def
/LT0 {PL [] LC0 DL} def
/LT1 {PL [2 dl1 3 dl2] LC1 DL} def
/LT2 {PL [1 dl1 1.5 dl2] LC2 DL} def
/LT3 {PL [6 dl1 2 dl2 1 dl1 2 dl2] LC3 DL} def
/LT4 {PL [1 dl1 2 dl2 6 dl1 2 dl2 1 dl1 2 dl2] LC4 DL} def
/LT5 {PL [4 dl1 2 dl2] LC5 DL} def
/LT6 {PL [1.5 dl1 1.5 dl2 1.5 dl1 1.5 dl2 1.5 dl1 6 dl2] LC6 DL} def
/LT7 {PL [3 dl1 3 dl2 1 dl1 3 dl2] LC7 DL} def
/LT8 {PL [2 dl1 2 dl2 2 dl1 6 dl2] LC8 DL} def
/SL {[] 0 setdash} def
/Pnt {stroke [] 0 setdash gsave 1 setlinecap M 0 0 V stroke grestore} def
/Dia {stroke [] 0 setdash 2 copy vpt add M
  hpt neg vpt neg V hpt vpt neg V
  hpt vpt V hpt neg vpt V closepath stroke
  Pnt} def
/Pls {stroke [] 0 setdash vpt sub M 0 vpt2 V
  currentpoint stroke M
  hpt neg vpt neg R hpt2 0 V stroke
 } def
/Box {stroke [] 0 setdash 2 copy exch hpt sub exch vpt add M
  0 vpt2 neg V hpt2 0 V 0 vpt2 V
  hpt2 neg 0 V closepath stroke
  Pnt} def
/Crs {stroke [] 0 setdash exch hpt sub exch vpt add M
  hpt2 vpt2 neg V currentpoint stroke M
  hpt2 neg 0 R hpt2 vpt2 V stroke} def
/TriU {stroke [] 0 setdash 2 copy vpt 1.12 mul add M
  hpt neg vpt -1.62 mul V
  hpt 2 mul 0 V
  hpt neg vpt 1.62 mul V closepath stroke
  Pnt} def
/Star {2 copy Pls Crs} def
/BoxF {stroke [] 0 setdash exch hpt sub exch vpt add M
  0 vpt2 neg V hpt2 0 V 0 vpt2 V
  hpt2 neg 0 V closepath fill} def
/TriUF {stroke [] 0 setdash vpt 1.12 mul add M
  hpt neg vpt -1.62 mul V
  hpt 2 mul 0 V
  hpt neg vpt 1.62 mul V closepath fill} def
/TriD {stroke [] 0 setdash 2 copy vpt 1.12 mul sub M
  hpt neg vpt 1.62 mul V
  hpt 2 mul 0 V
  hpt neg vpt -1.62 mul V closepath stroke
  Pnt} def
/TriDF {stroke [] 0 setdash vpt 1.12 mul sub M
  hpt neg vpt 1.62 mul V
  hpt 2 mul 0 V
  hpt neg vpt -1.62 mul V closepath fill} def
/DiaF {stroke [] 0 setdash vpt add M
  hpt neg vpt neg V hpt vpt neg V
  hpt vpt V hpt neg vpt V closepath fill} def
/Pent {stroke [] 0 setdash 2 copy gsave
  translate 0 hpt M 4 {72 rotate 0 hpt L} repeat
  closepath stroke grestore Pnt} def
/PentF {stroke [] 0 setdash gsave
  translate 0 hpt M 4 {72 rotate 0 hpt L} repeat
  closepath fill grestore} def
/Circle {stroke [] 0 setdash 2 copy
  hpt 0 360 arc stroke Pnt} def
/CircleF {stroke [] 0 setdash hpt 0 360 arc fill} def
/C0 {BL [] 0 setdash 2 copy moveto vpt 90 450 arc} bind def
/C1 {BL [] 0 setdash 2 copy moveto
	2 copy vpt 0 90 arc closepath fill
	vpt 0 360 arc closepath} bind def
/C2 {BL [] 0 setdash 2 copy moveto
	2 copy vpt 90 180 arc closepath fill
	vpt 0 360 arc closepath} bind def
/C3 {BL [] 0 setdash 2 copy moveto
	2 copy vpt 0 180 arc closepath fill
	vpt 0 360 arc closepath} bind def
/C4 {BL [] 0 setdash 2 copy moveto
	2 copy vpt 180 270 arc closepath fill
	vpt 0 360 arc closepath} bind def
/C5 {BL [] 0 setdash 2 copy moveto
	2 copy vpt 0 90 arc
	2 copy moveto
	2 copy vpt 180 270 arc closepath fill
	vpt 0 360 arc} bind def
/C6 {BL [] 0 setdash 2 copy moveto
	2 copy vpt 90 270 arc closepath fill
	vpt 0 360 arc closepath} bind def
/C7 {BL [] 0 setdash 2 copy moveto
	2 copy vpt 0 270 arc closepath fill
	vpt 0 360 arc closepath} bind def
/C8 {BL [] 0 setdash 2 copy moveto
	2 copy vpt 270 360 arc closepath fill
	vpt 0 360 arc closepath} bind def
/C9 {BL [] 0 setdash 2 copy moveto
	2 copy vpt 270 450 arc closepath fill
	vpt 0 360 arc closepath} bind def
/C10 {BL [] 0 setdash 2 copy 2 copy moveto vpt 270 360 arc closepath fill
	2 copy moveto
	2 copy vpt 90 180 arc closepath fill
	vpt 0 360 arc closepath} bind def
/C11 {BL [] 0 setdash 2 copy moveto
	2 copy vpt 0 180 arc closepath fill
	2 copy moveto
	2 copy vpt 270 360 arc closepath fill
	vpt 0 360 arc closepath} bind def
/C12 {BL [] 0 setdash 2 copy moveto
	2 copy vpt 180 360 arc closepath fill
	vpt 0 360 arc closepath} bind def
/C13 {BL [] 0 setdash 2 copy moveto
	2 copy vpt 0 90 arc closepath fill
	2 copy moveto
	2 copy vpt 180 360 arc closepath fill
	vpt 0 360 arc closepath} bind def
/C14 {BL [] 0 setdash 2 copy moveto
	2 copy vpt 90 360 arc closepath fill
	vpt 0 360 arc} bind def
/C15 {BL [] 0 setdash 2 copy vpt 0 360 arc closepath fill
	vpt 0 360 arc closepath} bind def
/Rec {newpath 4 2 roll moveto 1 index 0 rlineto 0 exch rlineto
	neg 0 rlineto closepath} bind def
/Square {dup Rec} bind def
/Bsquare {vpt sub exch vpt sub exch vpt2 Square} bind def
/S0 {BL [] 0 setdash 2 copy moveto 0 vpt rlineto BL Bsquare} bind def
/S1 {BL [] 0 setdash 2 copy vpt Square fill Bsquare} bind def
/S2 {BL [] 0 setdash 2 copy exch vpt sub exch vpt Square fill Bsquare} bind def
/S3 {BL [] 0 setdash 2 copy exch vpt sub exch vpt2 vpt Rec fill Bsquare} bind def
/S4 {BL [] 0 setdash 2 copy exch vpt sub exch vpt sub vpt Square fill Bsquare} bind def
/S5 {BL [] 0 setdash 2 copy 2 copy vpt Square fill
	exch vpt sub exch vpt sub vpt Square fill Bsquare} bind def
/S6 {BL [] 0 setdash 2 copy exch vpt sub exch vpt sub vpt vpt2 Rec fill Bsquare} bind def
/S7 {BL [] 0 setdash 2 copy exch vpt sub exch vpt sub vpt vpt2 Rec fill
	2 copy vpt Square fill Bsquare} bind def
/S8 {BL [] 0 setdash 2 copy vpt sub vpt Square fill Bsquare} bind def
/S9 {BL [] 0 setdash 2 copy vpt sub vpt vpt2 Rec fill Bsquare} bind def
/S10 {BL [] 0 setdash 2 copy vpt sub vpt Square fill 2 copy exch vpt sub exch vpt Square fill
	Bsquare} bind def
/S11 {BL [] 0 setdash 2 copy vpt sub vpt Square fill 2 copy exch vpt sub exch vpt2 vpt Rec fill
	Bsquare} bind def
/S12 {BL [] 0 setdash 2 copy exch vpt sub exch vpt sub vpt2 vpt Rec fill Bsquare} bind def
/S13 {BL [] 0 setdash 2 copy exch vpt sub exch vpt sub vpt2 vpt Rec fill
	2 copy vpt Square fill Bsquare} bind def
/S14 {BL [] 0 setdash 2 copy exch vpt sub exch vpt sub vpt2 vpt Rec fill
	2 copy exch vpt sub exch vpt Square fill Bsquare} bind def
/S15 {BL [] 0 setdash 2 copy Bsquare fill Bsquare} bind def
/D0 {gsave translate 45 rotate 0 0 S0 stroke grestore} bind def
/D1 {gsave translate 45 rotate 0 0 S1 stroke grestore} bind def
/D2 {gsave translate 45 rotate 0 0 S2 stroke grestore} bind def
/D3 {gsave translate 45 rotate 0 0 S3 stroke grestore} bind def
/D4 {gsave translate 45 rotate 0 0 S4 stroke grestore} bind def
/D5 {gsave translate 45 rotate 0 0 S5 stroke grestore} bind def
/D6 {gsave translate 45 rotate 0 0 S6 stroke grestore} bind def
/D7 {gsave translate 45 rotate 0 0 S7 stroke grestore} bind def
/D8 {gsave translate 45 rotate 0 0 S8 stroke grestore} bind def
/D9 {gsave translate 45 rotate 0 0 S9 stroke grestore} bind def
/D10 {gsave translate 45 rotate 0 0 S10 stroke grestore} bind def
/D11 {gsave translate 45 rotate 0 0 S11 stroke grestore} bind def
/D12 {gsave translate 45 rotate 0 0 S12 stroke grestore} bind def
/D13 {gsave translate 45 rotate 0 0 S13 stroke grestore} bind def
/D14 {gsave translate 45 rotate 0 0 S14 stroke grestore} bind def
/D15 {gsave translate 45 rotate 0 0 S15 stroke grestore} bind def
/DiaE {stroke [] 0 setdash vpt add M
  hpt neg vpt neg V hpt vpt neg V
  hpt vpt V hpt neg vpt V closepath stroke} def
/BoxE {stroke [] 0 setdash exch hpt sub exch vpt add M
  0 vpt2 neg V hpt2 0 V 0 vpt2 V
  hpt2 neg 0 V closepath stroke} def
/TriUE {stroke [] 0 setdash vpt 1.12 mul add M
  hpt neg vpt -1.62 mul V
  hpt 2 mul 0 V
  hpt neg vpt 1.62 mul V closepath stroke} def
/TriDE {stroke [] 0 setdash vpt 1.12 mul sub M
  hpt neg vpt 1.62 mul V
  hpt 2 mul 0 V
  hpt neg vpt -1.62 mul V closepath stroke} def
/PentE {stroke [] 0 setdash gsave
  translate 0 hpt M 4 {72 rotate 0 hpt L} repeat
  closepath stroke grestore} def
/CircE {stroke [] 0 setdash 
  hpt 0 360 arc stroke} def
/Opaque {gsave closepath 1 setgray fill grestore 0 setgray closepath} def
/DiaW {stroke [] 0 setdash vpt add M
  hpt neg vpt neg V hpt vpt neg V
  hpt vpt V hpt neg vpt V Opaque stroke} def
/BoxW {stroke [] 0 setdash exch hpt sub exch vpt add M
  0 vpt2 neg V hpt2 0 V 0 vpt2 V
  hpt2 neg 0 V Opaque stroke} def
/TriUW {stroke [] 0 setdash vpt 1.12 mul add M
  hpt neg vpt -1.62 mul V
  hpt 2 mul 0 V
  hpt neg vpt 1.62 mul V Opaque stroke} def
/TriDW {stroke [] 0 setdash vpt 1.12 mul sub M
  hpt neg vpt 1.62 mul V
  hpt 2 mul 0 V
  hpt neg vpt -1.62 mul V Opaque stroke} def
/PentW {stroke [] 0 setdash gsave
  translate 0 hpt M 4 {72 rotate 0 hpt L} repeat
  Opaque stroke grestore} def
/CircW {stroke [] 0 setdash 
  hpt 0 360 arc Opaque stroke} def
/BoxFill {gsave Rec 1 setgray fill grestore} def
/Density {
  /Fillden exch def
  currentrgbcolor
  /ColB exch def /ColG exch def /ColR exch def
  /ColR ColR Fillden mul Fillden sub 1 add def
  /ColG ColG Fillden mul Fillden sub 1 add def
  /ColB ColB Fillden mul Fillden sub 1 add def
  ColR ColG ColB setrgbcolor} def
/BoxColFill {gsave Rec PolyFill} def
/PolyFill {gsave Density fill grestore grestore} def
/h {rlineto rlineto rlineto gsave closepath fill grestore} bind def
%
% PostScript Level 1 Pattern Fill routine for rectangles
% Usage: x y w h s a XX PatternFill
%	x,y = lower left corner of box to be filled
%	w,h = width and height of box
%	  a = angle in degrees between lines and x-axis
%	 XX = 0/1 for no/yes cross-hatch
%
/PatternFill {gsave /PFa [ 9 2 roll ] def
  PFa 0 get PFa 2 get 2 div add PFa 1 get PFa 3 get 2 div add translate
  PFa 2 get -2 div PFa 3 get -2 div PFa 2 get PFa 3 get Rec
  TransparentPatterns {} {gsave 1 setgray fill grestore} ifelse
  clip
  currentlinewidth 0.5 mul setlinewidth
  /PFs PFa 2 get dup mul PFa 3 get dup mul add sqrt def
  0 0 M PFa 5 get rotate PFs -2 div dup translate
  0 1 PFs PFa 4 get div 1 add floor cvi
	{PFa 4 get mul 0 M 0 PFs V} for
  0 PFa 6 get ne {
	0 1 PFs PFa 4 get div 1 add floor cvi
	{PFa 4 get mul 0 2 1 roll M PFs 0 V} for
 } if
  stroke grestore} def
%
/languagelevel where
 {pop languagelevel} {1} ifelse
dup 2 lt
	{/InterpretLevel1 true def
	 /InterpretLevel3 false def}
	{/InterpretLevel1 Level1 def
	 2 gt
	    {/InterpretLevel3 Level3 def}
	    {/InterpretLevel3 false def}
	 ifelse }
 ifelse
%
% PostScript level 2 pattern fill definitions
%
/Level2PatternFill {
/Tile8x8 {/PaintType 2 /PatternType 1 /TilingType 1 /BBox [0 0 8 8] /XStep 8 /YStep 8}
	bind def
/KeepColor {currentrgbcolor [/Pattern /DeviceRGB] setcolorspace} bind def
<< Tile8x8
 /PaintProc {0.5 setlinewidth pop 0 0 M 8 8 L 0 8 M 8 0 L stroke} 
>> matrix makepattern
/Pat1 exch def
<< Tile8x8
 /PaintProc {0.5 setlinewidth pop 0 0 M 8 8 L 0 8 M 8 0 L stroke
	0 4 M 4 8 L 8 4 L 4 0 L 0 4 L stroke}
>> matrix makepattern
/Pat2 exch def
<< Tile8x8
 /PaintProc {0.5 setlinewidth pop 0 0 M 0 8 L
	8 8 L 8 0 L 0 0 L fill}
>> matrix makepattern
/Pat3 exch def
<< Tile8x8
 /PaintProc {0.5 setlinewidth pop -4 8 M 8 -4 L
	0 12 M 12 0 L stroke}
>> matrix makepattern
/Pat4 exch def
<< Tile8x8
 /PaintProc {0.5 setlinewidth pop -4 0 M 8 12 L
	0 -4 M 12 8 L stroke}
>> matrix makepattern
/Pat5 exch def
<< Tile8x8
 /PaintProc {0.5 setlinewidth pop -2 8 M 4 -4 L
	0 12 M 8 -4 L 4 12 M 10 0 L stroke}
>> matrix makepattern
/Pat6 exch def
<< Tile8x8
 /PaintProc {0.5 setlinewidth pop -2 0 M 4 12 L
	0 -4 M 8 12 L 4 -4 M 10 8 L stroke}
>> matrix makepattern
/Pat7 exch def
<< Tile8x8
 /PaintProc {0.5 setlinewidth pop 8 -2 M -4 4 L
	12 0 M -4 8 L 12 4 M 0 10 L stroke}
>> matrix makepattern
/Pat8 exch def
<< Tile8x8
 /PaintProc {0.5 setlinewidth pop 0 -2 M 12 4 L
	-4 0 M 12 8 L -4 4 M 8 10 L stroke}
>> matrix makepattern
/Pat9 exch def
/Pattern1 {PatternBgnd KeepColor Pat1 setpattern} bind def
/Pattern2 {PatternBgnd KeepColor Pat2 setpattern} bind def
/Pattern3 {PatternBgnd KeepColor Pat3 setpattern} bind def
/Pattern4 {PatternBgnd KeepColor Landscape {Pat5} {Pat4} ifelse setpattern} bind def
/Pattern5 {PatternBgnd KeepColor Landscape {Pat4} {Pat5} ifelse setpattern} bind def
/Pattern6 {PatternBgnd KeepColor Landscape {Pat9} {Pat6} ifelse setpattern} bind def
/Pattern7 {PatternBgnd KeepColor Landscape {Pat8} {Pat7} ifelse setpattern} bind def
} def
%
%
%End of PostScript Level 2 code
%
/PatternBgnd {
  TransparentPatterns {} {gsave 1 setgray fill grestore} ifelse
} def
%
% Substitute for Level 2 pattern fill codes with
% grayscale if Level 2 support is not selected.
%
/Level1PatternFill {
/Pattern1 {0.250 Density} bind def
/Pattern2 {0.500 Density} bind def
/Pattern3 {0.750 Density} bind def
/Pattern4 {0.125 Density} bind def
/Pattern5 {0.375 Density} bind def
/Pattern6 {0.625 Density} bind def
/Pattern7 {0.875 Density} bind def
} def
%
% Now test for support of Level 2 code
%
Level1 {Level1PatternFill} {Level2PatternFill} ifelse
%
/Symbol-Oblique /Symbol findfont [1 0 .167 1 0 0] makefont
dup length dict begin {1 index /FID eq {pop pop} {def} ifelse} forall
currentdict end definefont pop
%
/MFshow {
   { dup 5 get 3 ge
     { 5 get 3 eq {gsave} {grestore} ifelse }
     {dup dup 0 get findfont exch 1 get scalefont setfont
     [ currentpoint ] exch dup 2 get 0 exch R dup 5 get 2 ne {dup dup 6
     get exch 4 get {textshow} {stringwidth pop 0 R} ifelse }if dup 5 get 0 eq
     {dup 3 get {2 get neg 0 exch R pop} {pop aload pop M} ifelse} {dup 5
     get 1 eq {dup 2 get exch dup 3 get exch 6 get stringwidth pop -2 div
     dup 0 R} {dup 6 get stringwidth pop -2 div 0 R 6 get
     textshow 2 index {aload pop M neg 3 -1 roll neg R pop pop} {pop pop pop
     pop aload pop M} ifelse }ifelse }ifelse }
     ifelse }
   forall} def
/Gswidth {dup type /stringtype eq {stringwidth} {pop (n) stringwidth} ifelse} def
/MFwidth {0 exch { dup 5 get 3 ge { 5 get 3 eq { 0 } { pop } ifelse }
 {dup 3 get{dup dup 0 get findfont exch 1 get scalefont setfont
     6 get Gswidth pop add} {pop} ifelse} ifelse} forall} def
/MLshow { currentpoint stroke M
  0 exch R
  Blacktext {gsave 0 setgray MFshow grestore} {MFshow} ifelse } bind def
/MRshow { currentpoint stroke M
  exch dup MFwidth neg 3 -1 roll R
  Blacktext {gsave 0 setgray MFshow grestore} {MFshow} ifelse } bind def
/MCshow { currentpoint stroke M
  exch dup MFwidth -2 div 3 -1 roll R
  Blacktext {gsave 0 setgray MFshow grestore} {MFshow} ifelse } bind def
/XYsave    { [( ) 1 2 true false 3 ()] } bind def
/XYrestore { [( ) 1 2 true false 4 ()] } bind def
Level1 SuppressPDFMark or 
{} {
/SDict 10 dict def
systemdict /pdfmark known not {
  userdict /pdfmark systemdict /cleartomark get put
} if
SDict begin [
  /Title (w_Polr.eps)
  /Subject (gnuplot plot)
  /Creator (gnuplot 5.0 patchlevel 3)
  /Author (debarshee)
%  /Producer (gnuplot)
%  /Keywords ()
  /CreationDate (Tue Jun 23 19:47:33 2020)
  /DOCINFO pdfmark
end
} ifelse
%
% Support for boxed text - Ethan A Merritt May 2005
%
/InitTextBox { userdict /TBy2 3 -1 roll put userdict /TBx2 3 -1 roll put
           userdict /TBy1 3 -1 roll put userdict /TBx1 3 -1 roll put
	   /Boxing true def } def
/ExtendTextBox { Boxing
    { gsave dup false charpath pathbbox
      dup TBy2 gt {userdict /TBy2 3 -1 roll put} {pop} ifelse
      dup TBx2 gt {userdict /TBx2 3 -1 roll put} {pop} ifelse
      dup TBy1 lt {userdict /TBy1 3 -1 roll put} {pop} ifelse
      dup TBx1 lt {userdict /TBx1 3 -1 roll put} {pop} ifelse
      grestore } if } def
/PopTextBox { newpath TBx1 TBxmargin sub TBy1 TBymargin sub M
               TBx1 TBxmargin sub TBy2 TBymargin add L
	       TBx2 TBxmargin add TBy2 TBymargin add L
	       TBx2 TBxmargin add TBy1 TBymargin sub L closepath } def
/DrawTextBox { PopTextBox stroke /Boxing false def} def
/FillTextBox { gsave PopTextBox 1 1 1 setrgbcolor fill grestore /Boxing false def} def
0 0 0 0 InitTextBox
/TBxmargin 20 def
/TBymargin 20 def
/Boxing false def
/textshow { ExtendTextBox Gshow } def
%
% redundant definitions for compatibility with prologue.ps older than 5.0.2
/LTB {BL [] LCb DL} def
/LTb {PL [] LCb DL} def
end
%%EndProlog
%%Page: 1 1
gnudict begin
gsave
doclip
50 50 translate
0.050 0.050 scale
0 setgray
newpath
(Helvetica) findfont 260 scalefont setfont
BackgroundColor 0 lt 3 1 roll 0 lt exch 0 lt or or not {BackgroundColor C 1.000 0 0 7200.00 5040.00 BoxColFill} if
1.000 UL
LTb
LCb setrgbcolor
1430 832 M
63 0 V
5238 0 R
-63 0 V
stroke
1274 832 M
[ [(Helvetica) 260.0 0.0 true true 0 ( 0)]
] -86.7 MRshow
1.000 UL
LTb
LCb setrgbcolor
1430 1517 M
63 0 V
5238 0 R
-63 0 V
stroke
1274 1517 M
[ [(Helvetica) 260.0 0.0 true true 0 ( 0.02)]
] -86.7 MRshow
1.000 UL
LTb
LCb setrgbcolor
1430 2203 M
63 0 V
5238 0 R
-63 0 V
stroke
1274 2203 M
[ [(Helvetica) 260.0 0.0 true true 0 ( 0.04)]
] -86.7 MRshow
1.000 UL
LTb
LCb setrgbcolor
1430 2888 M
63 0 V
5238 0 R
-63 0 V
stroke
1274 2888 M
[ [(Helvetica) 260.0 0.0 true true 0 ( 0.06)]
] -86.7 MRshow
1.000 UL
LTb
LCb setrgbcolor
1430 3574 M
63 0 V
5238 0 R
-63 0 V
stroke
1274 3574 M
[ [(Helvetica) 260.0 0.0 true true 0 ( 0.08)]
] -86.7 MRshow
1.000 UL
LTb
LCb setrgbcolor
1430 4259 M
63 0 V
5238 0 R
-63 0 V
stroke
1274 4259 M
[ [(Helvetica) 260.0 0.0 true true 0 ( 0.1)]
] -86.7 MRshow
1.000 UL
LTb
LCb setrgbcolor
1430 832 M
0 63 V
0 3364 R
0 -63 V
stroke
1430 572 M
[ [(Helvetica) 260.0 0.0 true true 0 ( 0)]
] -86.7 MCshow
1.000 UL
LTb
LCb setrgbcolor
2187 832 M
0 63 V
0 3364 R
0 -63 V
stroke
2187 572 M
[ [(Helvetica) 260.0 0.0 true true 0 ( 0.1)]
] -86.7 MCshow
1.000 UL
LTb
LCb setrgbcolor
2945 832 M
0 63 V
0 3364 R
0 -63 V
stroke
2945 572 M
[ [(Helvetica) 260.0 0.0 true true 0 ( 0.2)]
] -86.7 MCshow
1.000 UL
LTb
LCb setrgbcolor
3702 832 M
0 63 V
0 3364 R
0 -63 V
stroke
3702 572 M
[ [(Helvetica) 260.0 0.0 true true 0 ( 0.3)]
] -86.7 MCshow
1.000 UL
LTb
LCb setrgbcolor
4459 832 M
0 63 V
0 3364 R
0 -63 V
stroke
4459 572 M
[ [(Helvetica) 260.0 0.0 true true 0 ( 0.4)]
] -86.7 MCshow
1.000 UL
LTb
LCb setrgbcolor
5216 832 M
0 63 V
0 3364 R
0 -63 V
stroke
5216 572 M
[ [(Helvetica) 260.0 0.0 true true 0 ( 0.5)]
] -86.7 MCshow
1.000 UL
LTb
LCb setrgbcolor
5974 832 M
0 63 V
0 3364 R
0 -63 V
stroke
5974 572 M
[ [(Helvetica) 260.0 0.0 true true 0 ( 0.6)]
] -86.7 MCshow
1.000 UL
LTb
LCb setrgbcolor
6731 832 M
0 63 V
0 3364 R
0 -63 V
stroke
6731 572 M
[ [(Helvetica) 260.0 0.0 true true 0 ( 0.7)]
] -86.7 MCshow
1.000 UL
LTb
LCb setrgbcolor
1.000 UL
LTB
LCb setrgbcolor
1430 4259 N
0 -3427 V
5301 0 V
0 3427 V
-5301 0 V
Z stroke
1.000 UP
LCb setrgbcolor
2187 3574 M
[ [(Helvetica) 260.0 0.0 true true 0 (\(b\))]
] -86.7 MLshow
1.000 UL
LTb
LCb setrgbcolor
LCb setrgbcolor
208 2545 M
currentpoint gsave translate -270 rotate 0 0 moveto
[ [(Helvetica) 260.0 0.0 true true 0 (Histogram\()]
[(Symbol) 260.0 0.0 true true 0 (r)]
[(Helvetica) 260.0 0.0 true true 0 (\))]
] -86.7 MCshow
grestore
LTb
LCb setrgbcolor
4080 182 M
[ [(Symbol) 260.0 0.0 true true 0 (r)]
] -86.7 MCshow
LTb
LCb setrgbcolor
4080 4649 M
[ [(Helvetica) 260.0 0.0 true true 0 (w/Polr)]
] -86.7 MCshow
% Begin plot #1
1.000 UP
1.000 UL
LTb
0.58 0.00 0.83 C LCb setrgbcolor
6122 4059 M
[ [(Symbol) 260.0 0.0 true true 0 (S)]
[(Helvetica) 260.0 0.0 true true 0 ( = 0.10 C/m)]
[(Helvetica) 208.0 130.0 true true 0 (2)]
] -112.7 MRshow
1.000 UP
1.000 UL
LTb
0.58 0.00 0.83 C 6278 4059 M
141 0 V
1628 835 M
84 -2 V
84 2 V
85 24 V
84 20 V
84 15 V
85 16 V
84 -18 V
84 59 V
84 139 V
85 32 V
84 9 V
84 194 V
85 154 V
84 114 V
84 210 V
84 270 V
85 202 V
84 165 V
84 114 V
85 180 V
84 44 V
84 135 V
84 99 V
85 -248 V
84 85 V
84 -110 V
85 52 V
84 -225 V
84 -189 V
84 -189 V
85 -380 V
84 -217 V
84 -164 V
84 -156 V
85 -182 V
84 -74 V
84 -82 V
85 -23 V
84 -40 V
84 -16 V
84 -8 V
85 -1 V
84 11 V
84 3 V
85 -9 V
84 -5 V
84 -4 V
84 -5 V
85 1 V
1628 835 Pls
1712 833 Pls
1796 835 Pls
1881 859 Pls
1965 879 Pls
2049 894 Pls
2134 910 Pls
2218 892 Pls
2302 951 Pls
2386 1090 Pls
2471 1122 Pls
2555 1131 Pls
2639 1325 Pls
2724 1479 Pls
2808 1593 Pls
2892 1803 Pls
2976 2073 Pls
3061 2275 Pls
3145 2440 Pls
3229 2554 Pls
3314 2734 Pls
3398 2778 Pls
3482 2913 Pls
3566 3012 Pls
3651 2764 Pls
3735 2849 Pls
3819 2739 Pls
3904 2791 Pls
3988 2566 Pls
4072 2377 Pls
4156 2188 Pls
4241 1808 Pls
4325 1591 Pls
4409 1427 Pls
4493 1271 Pls
4578 1089 Pls
4662 1015 Pls
4746 933 Pls
4831 910 Pls
4915 870 Pls
4999 854 Pls
5083 846 Pls
5168 845 Pls
5252 856 Pls
5336 859 Pls
5421 850 Pls
5505 845 Pls
5589 841 Pls
5673 836 Pls
5758 837 Pls
6348 4059 Pls
% End plot #1
% Begin plot #2
1.000 UP
1.000 UL
LTb
0.00 0.62 0.45 C LCb setrgbcolor
6122 3786 M
[ [(Helvetica) 260.0 0.0 true true 0 ( = 0.12 C/m)]
[(Helvetica) 208.0 130.0 true true 0 (2)]
] -112.7 MRshow
1.000 UP
1.000 UL
LTb
0.00 0.62 0.45 C 6278 3786 M
141 0 V
2128 837 M
76 16 V
76 7 V
76 28 V
76 11 V
77 6 V
76 33 V
76 1 V
76 98 V
76 81 V
77 68 V
76 19 V
76 103 V
76 167 V
77 79 V
76 77 V
76 148 V
76 226 V
76 83 V
77 135 V
76 141 V
76 223 V
76 109 V
77 -23 V
76 -65 V
76 -85 V
76 -32 V
76 -36 V
77 -83 V
76 -82 V
76 -170 V
76 -95 V
76 -69 V
77 -148 V
76 -280 V
76 -50 V
76 -113 V
77 -115 V
76 -32 V
76 -10 V
76 -91 V
76 -126 V
77 -93 V
76 -3 V
76 -19 V
76 -5 V
77 27 V
76 -20 V
76 -15 V
76 -23 V
2128 837 Crs
2204 853 Crs
2280 860 Crs
2356 888 Crs
2432 899 Crs
2509 905 Crs
2585 938 Crs
2661 939 Crs
2737 1037 Crs
2813 1118 Crs
2890 1186 Crs
2966 1205 Crs
3042 1308 Crs
3118 1475 Crs
3195 1554 Crs
3271 1631 Crs
3347 1779 Crs
3423 2005 Crs
3499 2088 Crs
3576 2223 Crs
3652 2364 Crs
3728 2587 Crs
3804 2696 Crs
3881 2673 Crs
3957 2608 Crs
4033 2523 Crs
4109 2491 Crs
4185 2455 Crs
4262 2372 Crs
4338 2290 Crs
4414 2120 Crs
4490 2025 Crs
4566 1956 Crs
4643 1808 Crs
4719 1528 Crs
4795 1478 Crs
4871 1365 Crs
4948 1250 Crs
5024 1218 Crs
5100 1208 Crs
5176 1117 Crs
5252 991 Crs
5329 898 Crs
5405 895 Crs
5481 876 Crs
5557 871 Crs
5634 898 Crs
5710 878 Crs
5786 863 Crs
5862 840 Crs
6348 3786 Crs
% End plot #2
% Begin plot #3
1.000 UP
1.000 UL
LTb
0.34 0.71 0.91 C LCb setrgbcolor
6122 3513 M
[ [(Helvetica) 260.0 0.0 true true 0 ( = 0.14 C/m)]
[(Helvetica) 208.0 130.0 true true 0 (2)]
] -112.7 MRshow
1.000 UP
1.000 UL
LTb
0.34 0.71 0.91 C 6278 3513 M
141 0 V
2743 837 M
72 8 V
72 -3 V
72 2 V
72 21 V
72 57 V
72 57 V
72 35 V
72 10 V
72 77 V
72 74 V
72 208 V
72 131 V
72 116 V
72 121 V
72 184 V
72 125 V
72 85 V
72 109 V
73 51 V
72 105 V
72 243 V
72 49 V
72 84 V
72 -140 V
72 -32 V
72 -43 V
72 -109 V
72 -115 V
72 -80 V
72 -213 V
72 -269 V
72 -187 V
72 -119 V
72 -58 V
72 -78 V
72 -111 V
72 -108 V
72 -66 V
72 0 V
72 -85 V
72 -17 V
72 -36 V
73 -31 V
72 -25 V
72 9 V
72 -18 V
72 -20 V
72 3 V
72 -4 V
2743 837 Star
2815 845 Star
2887 842 Star
2959 844 Star
3031 865 Star
3103 922 Star
3175 979 Star
3247 1014 Star
3319 1024 Star
3391 1101 Star
3463 1175 Star
3535 1383 Star
3607 1514 Star
3679 1630 Star
3751 1751 Star
3823 1935 Star
3895 2060 Star
3967 2145 Star
4039 2254 Star
4112 2305 Star
4184 2410 Star
4256 2653 Star
4328 2702 Star
4400 2786 Star
4472 2646 Star
4544 2614 Star
4616 2571 Star
4688 2462 Star
4760 2347 Star
4832 2267 Star
4904 2054 Star
4976 1785 Star
5048 1598 Star
5120 1479 Star
5192 1421 Star
5264 1343 Star
5336 1232 Star
5408 1124 Star
5480 1058 Star
5552 1058 Star
5624 973 Star
5696 956 Star
5768 920 Star
5841 889 Star
5913 864 Star
5985 873 Star
6057 855 Star
6129 835 Star
6201 838 Star
6273 834 Star
6348 3513 Star
% End plot #3
% Begin plot #4
1.000 UP
1.000 UL
LTb
0.90 0.62 0.00 C LCb setrgbcolor
6122 3240 M
[ [(Helvetica) 260.0 0.0 true true 0 ( = 0.16 C/m)]
[(Helvetica) 208.0 130.0 true true 0 (2)]
] -112.7 MRshow
1.000 UP
1.000 UL
LTb
0.90 0.62 0.00 C 6278 3240 M
141 0 V
2930 842 M
76 2 V
76 4 V
76 -12 V
75 4 V
76 7 V
76 9 V
76 53 V
76 74 V
76 31 V
76 76 V
76 -14 V
76 48 V
76 114 V
76 97 V
76 195 V
76 212 V
76 239 V
76 104 V
76 71 V
76 149 V
76 106 V
76 172 V
75 13 V
76 45 V
76 -230 V
76 69 V
76 -16 V
76 127 V
76 140 V
76 -123 V
76 -192 V
76 -337 V
76 -163 V
76 -206 V
76 -74 V
76 -121 V
76 -160 V
76 -136 V
76 -132 V
76 -54 V
75 -83 V
76 -56 V
76 -20 V
76 2 V
76 9 V
76 -14 V
76 -8 V
76 -11 V
76 -11 V
2930 842 Box
3006 844 Box
3082 848 Box
3158 836 Box
3233 840 Box
3309 847 Box
3385 856 Box
3461 909 Box
3537 983 Box
3613 1014 Box
3689 1090 Box
3765 1076 Box
3841 1124 Box
3917 1238 Box
3993 1335 Box
4069 1530 Box
4145 1742 Box
4221 1981 Box
4297 2085 Box
4373 2156 Box
4449 2305 Box
4525 2411 Box
4601 2583 Box
4676 2596 Box
4752 2641 Box
4828 2411 Box
4904 2480 Box
4980 2464 Box
5056 2591 Box
5132 2731 Box
5208 2608 Box
5284 2416 Box
5360 2079 Box
5436 1916 Box
5512 1710 Box
5588 1636 Box
5664 1515 Box
5740 1355 Box
5816 1219 Box
5892 1087 Box
5968 1033 Box
6043 950 Box
6119 894 Box
6195 874 Box
6271 876 Box
6347 885 Box
6423 871 Box
6499 863 Box
6575 852 Box
6651 841 Box
6348 3240 Box
% End plot #4
2.000 UL
LTb
LCb setrgbcolor
1.000 UL
LTB
LCb setrgbcolor
1430 4259 N
0 -3427 V
5301 0 V
0 3427 V
-5301 0 V
Z stroke
1.000 UP
1.000 UL
LTb
LCb setrgbcolor
stroke
grestore
end
showpage
%%Trailer
%%DocumentFonts: Symbol Helvetica
